<?xml version="1.0" encoding="utf-8"?>
<!-- (c) ammap.com | SVG map of Iran - High -->
<svg xmlns="http://www.w3.org/2000/svg" xmlns:amcharts="http://amcharts.com/ammap" xmlns:xlink="http://www.w3.org/1999/xlink" version="1.1" viewBox="0 0 750
 900" xml:space="preserve" width="700" height="650px" class="img-responsive">
 	<defs>
		<style type="text/css">
			.land
			{
        fill: #cacaca;
        fill-opacity: 1;
        stroke:#ff0000;
        stroke-opacity: 1;
        stroke-width:0.5;
        transition: 0.3s;
      }
      svg .land:hover{
        fill:#FF0000;
      }
		</style>

		<amcharts:ammap projection="mercator" leftLongitude="44.032695" topLatitude="39.782056" rightLongitude="63.333337" bottomLatitude="24.809394"></amcharts:ammap>

		<!-- All areas are listed in the line below. You can use this list in your script. -->	<!--{id:"IR-32"},{id:"IR-15"},{id:"IR-13"},{id:"IR-31"},{id:"IR-30"},{id:"IR-29"},{id:"IR-16"},{id:"IR-19"},{id:"IR-17"},{id:"IR-01"},{id:"IR-02"},{id:"IR-28"},{id:"IR-11"},{id:"IR-24},{id:"IR-26"},{id:"IR-22"},{id:"IR-03"},{id:"IR-23"},{id:"IR-05"},{id:"IR-20"},{id:"IR-10"},{id:"IR-08"},{id:"IR-25"},{id:"IR-07"},{id:"IR-12"},{id:"IR-21"},{id:"IR-27"},{id:"IR-14"},{id:"IR-04"},{id:"IR-06"},{id:"IR-18"}-->
        
	</defs>
	<g>
		<path id="IR-32" title="Alborz" class="land" d="M281.38,181.5L271.54,180.45L266.85,180.84L265.65,182.65L267.76,185.56L269.29,186.87L272.23,187.75L274.14,189.4L272.83,193.83L270.85,197.96L270.36,199.84L268.94,201.2L260.56,205.3L258.28,207.5L257.77,209.49L258.11,211.06L259.16,213.41L260.05,214.89L261.84,215.31L266.01,215.57L270.07,216.77L272.45,218.92L273.5,219.53L273.92,218.77L273.92,217.92L272.32,215.7L272.85,214.32L275.18,214.35L276.78,216.25L276.76,219.07L277.06,220.76L278.24,220.53L279.39,218.18L281.29,218L282.38,215.48L285.05,213.83L287.22,211.16L288.39,208.07L292.06,207.87L292.57,205.4L292.73,202.1L295.24,199.21L298.58,197.97L301.91,198.39L304.25,196.94L304.25,194.05L304.39,191.89L301.7,188.72L294.92,187.21L293.18,186.45L291.61,185L290.86,183.91L288.22,182.86L281.38,181.5z"/>
		<path id="IR-15" title="Kerman" class="land" d="M572.47,415.25L528.06,396.12L522.78,395.18L521.88,396.55L519.98,398.61L511.37,403.48L508.45,406.6L486.47,418.22L484.63,422.15L484.1,437.4L483.48,440.76L476.47,443.86L468.66,444.93L465.27,444.23L459.97,444.03L436.71,448.16L433.07,452.23L431.16,455.87L430.24,459.38L430.35,461.76L432.66,466.14L435.11,472.58L436.09,477.37L437.42,479L438.76,479.92L438.24,495.44L438.68,498.16L439.25,500.06L439.29,501.41L437.99,502.35L433.81,502.86L433.4,503.21L431.57,504.02L431.57,504.96L432.69,508.73L436.06,515.72L436.53,517.54L437.43,519.14L438.41,520.14L440.27,521.33L449.75,522.2L452.15,523.23L460.52,544.03L464.04,544.29L471.51,546.42L475.22,549.32L477.02,551.69L478.84,552.96L480.69,553.88L482.81,553.33L491.09,547.04L495.96,544.76L497.19,544.6L498.36,546.33L499.15,564.3L498.13,567.78L498.99,572.38L502.69,577.16L506.24,580.43L510.49,583.01L515.42,583.76L518.07,583.29L522.94,580.88L527.41,576.62L528.68,575.07L530.58,573.56L532.83,573.65L537.15,575.77L537.48,576.52L537.11,581.33L538.62,588.62L539.22,589.61L540.04,590.3L541.31,590.47L543.46,591.64L545.11,593.79L546.08,595.65L547.97,597.71L549.84,600.56L550.11,602.91L548.97,603.87L548.24,605.31L549.18,606.67L550.29,607.24L551.41,609.53L552.67,613.19L553.97,630.61L554.81,633.31L567.59,640.1L570.4,642.17L571.65,642.55L573.59,640.72L574.59,639.34L576.28,638.19L579.01,638.26L581.86,639.97L584.95,642.57L587.38,645.39L588.57,647.96L588.22,648.85L585.62,647.26L584.73,647.22L584.69,648.14L585.69,651.11L585.74,652.29L585.51,653.06L584.76,653.99L584.18,655.42L583.22,664.44L583.46,665.78L583.46,667.11L582.97,669.69L582.13,670.73L582.2,671.67L587.69,671.28L591.08,671.89L593.32,671.68L594.75,671L596.21,671.34L597.79,672.06L600.38,672.46L601.15,672.96L601.09,673.46L600.7,674.3L600.8,675.2L601.22,676.22L601.34,677.66L602.04,678.9L603.74,679.29L605.8,679.36L607.57,679.14L608.79,677.85L610,677.55L611.61,678.18L612.73,678.17L613.33,678.67L615.02,681.22L615.84,679.21L616.09,677.5L616.06,674.65L616.57,673.45L617.13,672.71L617.05,671.21L617.83,670.26L618.5,668.48L618.14,666.71L616.71,665.01L615.94,662.32L616.97,660.19L618.29,658.61L618.26,657.03L616.93,655.82L616.26,654.76L617.42,652.76L618.59,649.24L616.41,644.81L613.26,641.18L612.41,638.02L612.54,635.03L612.38,633.29L611.39,629.39L611.37,624.78L616.14,606.07L616.69,600.72L616.41,584.49L621.18,578.25L622.46,574L620.99,571.61L617.59,569.03L616.05,566.65L618.45,565.37L623.15,563.77L632.78,558.16L634.65,556.68L635.86,555.36L635.93,553.62L635.5,551.78L634.29,549.24L634.23,545.36L633.64,542.22L634.23,539.17L637.7,533.86L638.97,529.17L639.09,525.03L637.66,514.99L636.01,510.81L634.14,509.58L633.16,508.54L633.53,504.58L642.02,465.08L625.5,440.99L619.56,436.56L572.47,415.25z"/>
		<path id="IR-13" title="Sistan and Baluchestan" class="land" d="M720.49,724.83L721.46,723.54L720.86,723.12L723.12,722.44L723.71,722.12L724.04,721.81L724.09,721.63L724.09,721.39L724.28,720.91L724.92,720.07L725.15,719.63L724.81,719.23L724.4,719L723.43,718.69L724.32,718L725.01,718.01L725.68,718.28L726.56,718.38L726.33,718.17L725.92,717.69L725.69,717.47L725.82,717.19L725.88,716.45L726,716.19L726.4,715.93L726.6,716.07L726.73,716.35L727.45,716.87L727.53,717.64L727.8,718.31L727.8,718.3L729.11,714.49L729.36,710.63L729.65,706.07L729.9,702.14L730.07,699.47L730.21,698.81L730.46,698.37L731.06,697.76L731.33,697.4L731.45,695.82L730.99,694L730.78,692.31L731.65,691.1L732.53,690.89L733.33,690.91L734.05,690.74L734.68,689.97L734.91,689.16L735.35,685.95L735.87,682.12L736.26,679.26L736.59,676.78L736.97,673.98L737.32,672.55L737.92,671.3L738.93,670.52L743.92,669.1L745.4,668.11L746.17,667.73L747.02,667.46L748.74,667.18L749.11,666.7L749.26,665.56L749.96,664.44L751.52,664.65L753.36,665.3L754.91,665.52L755.81,665.04L755.77,664.39L755.37,663.54L755.14,662.48L755.44,661.91L756.74,660.62L757.17,659.82L757.13,659.53L756.97,659.27L756.84,658.97L756.92,658.56L757.18,658.21L757.54,657.99L758.35,657.66L758.69,657.47L759.22,657.08L759.56,656.93L759.95,656.89L760.83,656.93L761.25,656.81L761.49,656.59L761.83,655.99L762.16,655.74L762.55,655.62L769.48,654.89L770.32,654.59L770.67,654.32L770.99,653.98L771.35,653.76L771.79,653.85L772.26,654.07L772.61,654.1L773.89,653.81L774.24,653.67L774.55,653.51L774.83,653.29L775.26,652.5L775.57,652.08L776.02,651.95L778.84,652.02L782.08,652.1L785.83,652.19L787.44,652.44L789.07,652.49L790.28,652.22L790.67,652.25L791.03,652.42L791.33,652.63L791.65,652.8L792.07,652.82L793,651.91L793.44,650.06L793.76,643.33L794.07,642.6L794.75,642.24L796.43,641.97L797.05,641.4L797.18,640.55L796.84,639.8L796.32,639.05L795.95,638.18L795.74,632.94L795.8,632.39L795.97,631.92L796.41,631.29L796.57,630.82L797.02,630.08L797.83,629.72L798.74,629.72L799.45,630L798.04,626.87L797.45,625.99L797.01,625.51L796.63,625.27L795.61,624.9L795.14,624.6L794.07,623.62L793.55,623.43L793.13,623.42L790.87,624.14L790.34,624.16L789.65,624.09L788.55,624.14L786.38,624.81L785.3,624.98L782.89,625.46L781.77,625.52L780.46,625.24L779.49,624.7L779.16,624.59L778.87,624.64L778.3,624.97L777.97,624.98L777.35,624.64L775.56,623.04L776.22,623L776.62,622.69L776.87,622.17L777.07,621.5L777.14,620.75L776.94,620.24L776.13,619.26L778.3,614.35L778.55,612.41L778.33,609.98L777.93,605.67L777.73,603.33L777.38,599.55L777.13,596.77L776.05,592.27L775.28,589.03L775.95,583.69L776.55,578.87L776.35,577.23L775.43,576.67L768.66,578.05L767.82,577.52L765.21,574.68L764.61,573.66L764.34,572.85L764.05,572.37L763.62,572.09L762.93,571.87L762.26,571.49L761.84,570.92L761.48,570.29L761,569.72L759.85,569.12L754.39,568.01L750.94,566.47L749.62,566.18L746.87,565.95L745.62,565.55L743.64,564.41L741.17,563.71L740.4,563.3L739.09,561.78L736.47,559.34L734.75,557.1L730.48,553.22L729.28,551.74L728.09,549.14L726.9,547.8L726.68,547.1L726.59,546.3L726.35,545.38L724.6,541.35L724.23,540.86L723.77,540.5L723.24,540.25L722.92,540L722.82,539.73L722.94,539.44L723.24,539.13L723.62,538.72L723.76,538.29L723.64,537.88L723.24,537.56L722.53,537.26L722.21,536.57L721.99,535.76L721.57,535.09L721.12,534.85L720.74,534.8L720.36,534.67L719.92,534.17L719.71,533.63L719.6,532.45L719.47,531.91L718.94,531.1L717.62,529.64L717.23,528.68L717.23,527.75L717.72,526.08L717.8,525.16L717.42,523.95L716.69,523.43L715.82,523.09L715.01,522.42L711.6,518.35L708.37,514.47L705.25,510.73L702.54,507.48L700.35,504.89L697.01,500.92L699.41,498.12L702.55,494.43L702.56,494.42L708.96,486.77L712.38,482.68L714.72,479.88L719.2,474.51L722.56,470.46L722.56,470.46L727.3,464.73L732.53,458.39L735.95,454.25L736.65,453.5L736.55,453.24L736.5,453.19L736.56,452.32L736.66,451.98L736.91,451.84L736.75,448.55L736.57,447.98L737.36,446.42L737.66,445.4L737.65,444.45L737.45,443.49L736.95,441.91L736.22,440.38L736.12,439.87L736.05,438.46L735.7,437.37L734.59,435.53L734.19,434.54L734.17,433.58L734.46,431.5L734.17,430.6L732.69,428.72L731.88,428.07L730.82,427.65L728.54,427.32L723.77,426.62L715.65,425.43L708.63,424.4L709.38,427.22L708.81,433.05L706.16,439.44L704.2,446.52L703.34,459.12L703.51,462.79L705.61,472.12L705.54,473.62L704.89,474.61L703.49,475.17L697.86,475.37L694.47,472.45L687.96,463.15L682.86,459.39L679.03,458.34L678.08,457.58L676.62,456.04L674.37,455.63L643.32,464.45L642.02,465.08L633.53,504.58L633.16,508.54L634.14,509.58L636.01,510.81L637.66,514.99L639.09,525.03L638.97,529.17L637.7,533.86L634.23,539.17L633.64,542.22L634.23,545.36L634.29,549.24L635.5,551.78L635.93,553.62L635.86,555.36L634.65,556.68L632.78,558.16L623.15,563.77L618.45,565.37L616.05,566.65L617.59,569.03L620.99,571.61L622.46,574L621.18,578.25L616.41,584.49L616.69,600.72L616.14,606.07L611.37,624.78L611.39,629.39L612.38,633.29L612.54,635.03L612.41,638.02L613.26,641.18L616.41,644.81L618.59,649.24L617.42,652.76L616.26,654.76L616.93,655.82L618.26,657.03L618.29,658.61L616.97,660.19L615.94,662.32L616.71,665.01L618.14,666.71L618.5,668.48L617.83,670.26L617.05,671.21L617.13,672.71L616.57,673.45L616.06,674.65L616.09,677.5L615.84,679.21L615.02,681.22L614.53,681.49L613.78,682.63L613.58,684.1L613.74,684.94L614.31,685.18L615.78,686.11L623.62,693.06L624.96,695.25L625.18,696.91L626.09,697.84L627.34,698.32L628.02,699.16L628.29,700.1L628.86,700.83L629.55,701.51L631.01,704.01L631.35,704.47L632.12,704.85L632.01,705.59L631.99,706.28L630.9,706.75L631.08,707.84L632.24,707.66L637.13,706.87L639.47,706.42L640.98,707.26L642.95,709.26L646.1,709.99L647.97,710.01L652.75,709.71L654.62,710.2L656.35,711.86L658.09,712.46L659.62,711.31L661.84,711.22L663.95,710.9L665.47,710.81L666.12,711.16L666.58,711.76L666.9,712L668.32,712.21L668.77,712.36L669.6,712.92L670.73,712.93L671.01,712.07L670.14,711.48L670.04,711.26L670.04,710.99L670.41,710.57L670.65,710.48L671.8,710.25L673.3,710.18L674.05,710.29L674.65,710.57L674.47,710.75L674.08,711.48L675.28,712.46L677.08,712.43L677.91,712.9L679.6,713.6L680.93,714.16L681.41,714.27L681.52,713.69L680.33,713.07L680.33,712.97L680.79,713.03L680.35,712.56L680.18,712.27L680.01,712.16L679.65,712.16L679.19,711.94L678.91,711.91L678.71,711.78L678.55,710.85L678.42,710.56L678.43,710.26L678.76,709.76L679.41,708.97L679.8,708.35L680.51,707.96L683.35,707.08L684.09,707.01L684.82,707.1L685.46,707.48L686.97,708.97L687.1,709.38L687.11,711.95L687.24,712.56L688.24,714.01L687.6,714.6L688.29,714.97L692.19,715.46L697.94,716.82L704.72,717.95L710.5,720.03L711.13,721.16L711.11,721.91L713.53,722.43L720.49,724.83z"/>
		<path id="IR-31" title="North Khorasan" class="land" d="M558.46,98.27L552.5,95.9L551.46,94.5L552.27,91.73L552.38,90.85L552.17,89.93L551.29,88.67L550.81,87.09L549.45,85.62L548.97,84.89L548.22,83.07L547.26,81.44L547.09,80.98L547.07,80.59L546.96,80.25L546.5,79.95L545.61,79.64L545.16,79.59L544.71,79.64L543.99,80L543.63,80.39L543.5,80.53L542.67,81.98L542.18,82.51L540.84,83.41L540.26,83.92L539.51,84.34L538.67,84.21L537.03,83.53L530.8,82.36L530.16,82.15L528.74,81.33L527.12,80.01L526.72,79.93L524.74,80.27L521.42,81.73L520.76,81.85L520.2,81.59L519.68,81.18L519.1,80.82L518.39,80.65L514.6,80.77L513.1,81.35L511.7,82.33L509.09,84.76L508.83,85.48L509.96,86.77L510.15,87.69L510.01,88.66L509.59,89.49L508.94,89.98L505.4,90.57L504.72,90.48L503.44,89.95L503.72,93.63L503.45,95.12L503.56,97.02L504.05,99.23L504.01,100.47L503.17,103.85L503.26,106.23L504.67,107.9L506.62,108.87L508.31,110.17L509.08,113.36L506.8,116.53L501.95,118.21L500.85,118.38L499.6,118.95L498.34,120.11L495.33,121.36L492.3,126.73L491.05,127.95L497.31,136.3L500.25,138.38L501.88,138.09L503.9,138.94L503.46,140.13L501.05,140.85L499.98,141.71L499.72,142.47L499.99,142.88L500.26,143.44L500.46,144.81L500.25,148.32L499.47,151.42L499.32,152.46L500.1,154.09L505,159.61L509.69,163.66L512.03,164.43L515.97,165.11L518.03,165.9L524.33,164.83L524.46,163.43L524.14,161.6L524.47,159.25L526.86,156.06L536.82,147.96L543.43,148.28L570.83,163.52L582.29,165.28L585.43,164.5L586.98,163.04L588.36,159.01L588.02,157.39L586.54,156.51L586,155.69L586.27,154.25L588.72,151.61L588.57,150.41L587.2,149.74L586.37,148.47L586.02,147.14L585.48,147.38L584.88,148.95L583.77,149.12L583.03,147.66L581.88,146.4L579.86,144.99L579.66,143.18L581.34,141.09L583.83,133.75L585.32,131.66L585.73,130.11L585.77,129.08L586.15,128.18L587.24,126.83L588.15,125.16L587.9,123.06L586.76,120.73L583.01,117.21L582.05,115.04L581.53,113.26L580.75,112.28L562.19,111.4L560.61,110.26L561.29,108.45L561.75,106.51L561.75,104.23L563.31,102.63L568.33,99.53L568.13,99.51L567.6,99.17L567.08,98.72L566.52,98.38L565.9,98.37L565.28,98.53L563.26,98.57L561.15,97.96L560.46,97.87L559.76,97.98L559.11,98.18L558.46,98.27z"/>
		<path id="IR-30" title="Razavi Khorasan" class="land" d="M571.03,101.14L570.41,100.88L570.16,100.55L569.79,99.76L569.5,99.47L569.15,99.39L568.48,99.54L568.33,99.53L563.31,102.63L561.75,104.23L561.75,106.51L561.29,108.45L560.61,110.26L562.19,111.4L580.75,112.28L581.53,113.26L582.05,115.04L583.01,117.21L586.76,120.73L587.9,123.06L588.15,125.16L587.24,126.83L586.15,128.18L585.77,129.08L585.73,130.11L585.32,131.66L583.83,133.75L581.34,141.09L579.66,143.18L579.86,144.99L581.88,146.4L583.03,147.66L583.77,149.12L584.88,148.95L585.48,147.38L586.02,147.14L586.37,148.47L587.2,149.74L588.57,150.41L588.72,151.61L586.27,154.25L586,155.69L586.54,156.51L588.02,157.39L588.36,159.01L586.98,163.04L585.43,164.5L582.29,165.28L570.83,163.52L543.43,148.28L536.82,147.96L526.86,156.06L524.47,159.25L524.14,161.6L524.46,163.43L524.33,164.83L525.14,164.6L526.46,164.65L528.14,165.66L529.16,169.71L528.04,174.52L526.37,177.72L525.76,183.31L526.54,192.93L527.88,199.12L529.01,201.98L538.82,210.02L541.53,213.14L540.9,216.7L533.7,229.1L531.94,233.19L530.68,234.18L521.94,237.48L517.24,240.28L511.9,245.17L505.25,253.41L522.16,248.99L538.61,241.17L549.03,238.49L553.63,239.7L565.7,248.98L567.12,252.16L566.56,255.39L562.55,259.33L546.15,270.96L543.33,276.05L538.12,291.77L537.78,300.21L540.36,314.57L542.3,317.64L550.52,318.62L561.09,316.16L562.86,318.42L564.5,321.59L567.59,342.51L570.29,348.67L573.8,350.69L574.79,351.47L577.47,352.67L580.99,354.87L584.33,360.13L585.42,360.9L586.46,359.66L588.23,356.62L589.6,350.78L595.34,342.06L608.35,333.42L610.19,331.53L612.25,328.22L612.5,326.8L613.74,324.52L607.46,319.93L607.11,318.5L606.68,317.33L605.71,316.63L604.55,315.49L604.36,313.38L604.98,310.55L606.04,307.99L606.2,306.02L605.76,303.82L606.63,300.14L607.02,296.84L605.4,294.23L605.17,292.92L605.78,291.49L608,290.64L614.59,291.47L618.83,292.77L619.96,291.95L621.14,290.64L633.43,288.81L637.27,286.6L641.58,284.99L643.81,286.9L647.87,293.54L653.29,295.47L679.04,295.39L682.27,294.85L682.29,294.85L682.22,294.18L682.46,291.94L683.63,289.59L684.93,287.89L686.38,286.38L688.35,285.33L688.99,284.62L688.71,283.55L691.63,283.38L695.84,283.12L698.92,282.94L698.45,282L695.38,278L694.73,276.69L694.32,276.11L693.82,275.66L692.81,275.19L692.44,274.84L692.09,273.64L691.82,273.3L691.47,273.1L691.03,273.03L691.63,271.98L692.66,271.44L694.93,271.14L695.96,270.85L696.77,270.29L698.65,268.14L698.86,267.74L699.13,267.41L699.68,267.09L700.26,266.99L700.8,267.04L701.28,266.92L701.72,266.35L701.88,265.12L701.75,263.82L701.8,262.63L702.54,261.76L703.85,260.73L704.66,259.28L704.89,258.45L706.16,258.02L706.49,256.36L706.67,254.58L706.64,254.14L706.46,253.2L706.42,252.68L706.55,252.05L707.13,251.1L707.26,250.62L707.4,249.63L708,247.74L708.25,245.65L708.55,244.92L709.55,243.51L709.11,243.05L709.05,242.64L709.16,242.19L709.24,241.61L709.13,241.4L707.66,239.4L707.44,238.9L707.69,238.67L708.11,238.45L708.12,237.97L707.92,237.48L707.69,237.26L707.66,236.77L707.69,235.69L707.94,234.61L708.53,234.11L709.41,234.09L710.4,233.92L711.2,233.47L711.53,232.57L711.33,229.96L711.53,228.92L711.77,228.36L712.63,227.18L712.86,226.66L713.22,225.07L713.68,224.09L714.65,222.91L715.2,221.95L715.46,220.89L715.35,219.86L714.92,217.78L714.61,217.31L713.61,215.74L713.05,214.59L712.94,213.23L713.1,212.92L713.67,212.37L713.79,212.01L713.76,211.11L713.79,210.82L714.06,209.61L714.05,209.11L713.79,208.73L714.05,207.59L714.03,206.76L713.88,205.99L713.69,204.17L713.43,203.26L713.06,202.4L712.63,201.7L711.97,200.88L711.25,200.21L710.41,199.76L709.4,199.6L708.83,199.35L709.31,198.74L710.15,198.05L710.65,197.51L710.68,197.03L710.53,196L710.65,195.38L710.92,195.14L711.3,194.98L711.66,194.73L711.81,194.17L711.83,193.71L711.9,193.2L712.03,192.75L712.24,192.39L712.67,191.82L712.75,191.51L712.69,191.24L712.58,189.7L711.96,186.51L711.36,185.51L711.22,185.01L711.2,183.82L711.13,183.29L710.96,182.75L710.79,182.44L710.53,182.13L710.21,181.87L709.81,181.7L709.92,181.34L709.98,181.2L710.12,180.99L709.53,179.52L709.76,177L710.65,172.86L710.41,172.09L710.34,171.47L710.52,170.92L710.77,170.53L711,170.04L711.16,169.46L711.22,168.83L711.15,168.18L711,167.7L710.65,166.91L710.32,165.16L708.64,164.93L706.58,164.56L702.34,164.64L697.43,164.73L688.6,164.89L682.81,164.99L676.24,165.11L674.87,164.35L674.02,162.85L672.81,159.68L671.94,158.27L667.56,152.91L665.65,149.98L664.09,146.67L662.87,145.02L661.31,144.34L657.91,143.74L656.39,142.84L653.68,140.54L647.72,138.59L647.28,138.56L646.89,138.77L646.41,139.54L646.12,139.85L645.72,139.93L645.17,139.49L644.88,138.63L644.68,137.65L644.39,136.84L643.7,136.09L643.08,135.99L641.77,136.51L641.43,136.49L641.08,136.31L640.75,136.04L640.48,135.76L639.8,135.58L639.68,135.21L639.8,134.78L639.85,134.43L639.91,134.29L640.06,134.12L640.11,133.86L639.87,133.51L639.09,132.64L636.5,130.48L636.01,129.77L635.2,126.18L635.1,125.09L635.24,124.51L635.5,124L635.67,123.53L635.55,123.1L635.3,122.53L635.43,121.37L635.24,120.68L634.44,119.57L633.61,118.78L632.66,118.53L630.33,119.59L629.45,119.51L623.93,115.52L622.58,114.12L622.12,113.86L620.92,113.68L620.36,113.5L619.78,113.08L618.15,112.32L614.94,111.58L612.46,110.19L612.23,110.56L612.13,111.33L611.58,112.02L611.14,112.17L610.72,112.21L609.83,112.04L609.36,112.04L609.07,112.28L608.81,112.59L608.45,112.81L607.52,112.91L606.58,112.77L604.79,112.03L602.71,110.18L602.04,109.83L601.23,109.89L600.59,110.36L600.09,111.1L599.71,111.97L599.15,112.84L598.44,113.18L594.69,113.55L594.11,113.4L593.02,112.62L592.5,112.37L589.27,111.88L588.57,111.62L587.86,111.03L587.66,110.43L587.66,109.71L587.55,108.75L587.41,108.36L586.75,107.14L586.72,106.73L586.81,106.36L586.8,106L586.49,105.64L585.79,105.3L585.12,105.15L583.73,105.02L581,104.38L574.51,101.26L573.08,100.87L572.41,100.92L571.71,101.08L571.03,101.14z"/>
		<path id="IR-29" title="South Khorasan" class="land" d="M653.29,295.47L647.87,293.54L643.81,286.9L641.58,284.99L637.27,286.6L633.43,288.81L621.14,290.64L619.96,291.95L618.83,292.77L614.59,291.47L608,290.64L605.78,291.49L605.17,292.92L605.4,294.23L607.02,296.84L606.63,300.14L605.76,303.82L606.2,306.02L606.04,307.99L604.98,310.55L604.36,313.38L604.55,315.49L605.71,316.63L606.68,317.33L607.11,318.5L607.46,319.93L613.74,324.52L612.5,326.8L612.25,328.22L610.19,331.53L608.35,333.42L595.34,342.06L589.6,350.78L588.23,356.62L586.46,359.66L585.42,360.9L585.62,364.68L585.28,366.19L584.16,368.01L583.46,369.77L583.76,370.86L584.39,371.99L585.6,373.37L585.67,374.86L586.93,377.6L588.59,380.35L588.5,383.04L587.56,385.77L587.18,388.17L586.5,390.45L580.99,397.85L579.47,402.11L575.22,408.72L573.05,414.3L572.47,415.25L619.56,436.56L625.5,440.99L642.02,465.08L643.32,464.45L674.37,455.63L676.62,456.04L678.08,457.58L679.03,458.34L682.86,459.39L687.96,463.15L694.47,472.45L697.86,475.37L703.49,475.17L704.89,474.61L705.54,473.62L705.61,472.12L703.51,462.79L703.34,459.12L704.2,446.52L706.16,439.44L708.81,433.05L709.38,427.22L708.63,424.4L708.57,424.39L701.63,423.37L697.46,422.76L696.08,422.18L695.59,417.63L694.97,415.28L694.87,414.14L695.4,410.55L694.82,406.04L694.73,403.68L695.04,400.67L694.97,399.61L694.81,399.09L694.6,398.61L694.52,398.11L694.87,397.04L694.63,396.76L694.28,396.56L694.14,396.26L694.46,395.51L695.54,394.11L695.79,393.3L696.35,389.41L696.43,385.42L695.03,380.18L693.2,373.39L691.52,367.7L690,362.53L688.56,357.61L687.16,352.84L685.97,348.8L685.37,345.64L685.31,341.74L685.56,341.05L687.56,338.33L689.81,335.29L691.83,332.55L693.4,330.4L694.59,329.34L695.95,328.49L696.38,327.93L696.61,326.94L696.54,326.08L696.39,325.26L696.51,324.54L697.24,324.05L699.2,323.92L699.82,323.7L700.14,323.15L700.18,323.07L699.81,322.36L699.11,321.73L698.47,321.36L697.08,321L695.48,320.89L692.44,321.05L689.2,320.8L685.86,319.41L683.25,316.9L682.22,313.27L682.55,311.64L683.83,308.75L683.92,306.8L682.74,299.17L682.29,294.85L682.27,294.85L679.04,295.39L653.29,295.47z"/>
		<path id="IR-16" title="Kordestan" class="land" d="M174.81,213.65L174.45,212.56L173.63,211.16L172.87,210.46L161.48,203.51L160.91,202.16L161.59,200.31L163.22,198.6L164.13,194.85L164.14,189.64L163.36,186.75L162.64,186.66L162.47,186.59L162.42,186.21L162.55,185.87L162.72,185.54L162.78,185.19L162.52,183.95L162.6,183.49L163.03,183.09L162.64,182.52L162.18,181.52L161.78,180.37L161.62,179.38L161.33,178.83L160.03,177.38L159.89,177.15L139.04,172.99L137.84,171.78L136.83,172.1L135.61,172.85L135.43,173.86L135.73,174.72L135.51,175.52L134.79,176.93L133.04,178.96L129.92,180.34L125.23,179.93L120.93,178.74L119.35,177.64L118.64,176.86L117.81,176.16L117.23,175.38L116.92,174.76L116.44,174.35L95.03,176.34L84.62,174.85L81,176.29L80.08,177.47L80.02,179.95L78.03,182.98L71.3,185.15L70.06,186.52L69.57,187.34L68.67,188.27L68.09,190.77L65.8,193.39L65.12,195.06L63.5,196.68L62.09,197.53L62.07,197.56L62.07,197.56L63.67,198.15L65.2,199.57L65.73,199.9L66.85,200.12L68.09,201.25L70.01,203.98L71.06,206.61L71.57,207.28L72.32,207.49L73.88,207.02L74.34,207.12L75.01,207.58L75.86,207.52L76.66,207.12L77.67,206.26L78.09,206.28L78.51,206.41L78.94,206.46L80.27,206L82.91,206.12L83.74,205.85L84.54,205.39L85.2,205.13L85.89,205.15L87.16,205.64L87.46,205.69L87.66,205.87L87.87,206.91L88.05,207.26L88.3,207.54L88.64,207.82L89.47,208.18L90.36,208.15L92.12,207.76L92.9,207.47L93.61,206.98L94.35,206.61L95.24,206.7L95.93,207.19L96.24,207.88L96.15,208.68L95.67,209.51L95.02,210.1L93.76,210.91L93.19,211.74L92.55,212.36L91.68,212.46L90.06,212.37L87.98,213.48L87.13,213.67L84.24,213.58L83.39,213.88L82.86,214.47L82.53,215.27L82.39,216.17L82.38,217.01L82.79,218.96L82.67,219.67L81.41,219.28L81.21,219.28L81.02,219.33L81.38,220.36L81.84,221.33L82,221.54L82.06,221.75L82.01,221.96L81.84,222.16L81.52,222.42L81.3,222.75L81.2,223.16L81.21,223.63L81.75,225.1L84.4,229.35L86.69,231.4L87.68,232.55L87.97,234.04L87.89,234.25L89.03,234.63L96.89,240.84L106.84,254.46L108.61,255.69L109.56,255.62L109.73,256.69L109.4,258.17L109.46,260.15L110.83,261.66L113.31,261.39L117.04,261.83L119.84,261.42L121.43,260.58L121.62,258.92L122.43,257.83L123.78,257.61L124.66,256.6L124.67,255.14L125.2,254.04L126.94,253.45L129.44,250.84L132.01,250.58L133.63,250.7L134.47,250.21L134.72,246.94L135.15,245.96L141.07,245.56L142.49,244.26L142.63,242.54L141.88,241.04L142.33,240.07L143.53,240.17L145.16,241.57L149.9,243.73L156.26,250.92L158.04,251.18L159.32,251.14L160.58,250.45L163.12,249.73L164.62,248.91L165.09,247.49L165.86,247.29L167.19,250.57L168.09,251.06L169.46,249.84L170.92,247.51L171.74,243.73L170.6,239.05L168.24,236.7L166.54,235.64L164.52,233.16L160.05,223.18L157.17,218.9L157.81,217.61L159.99,215.18L160.94,215.08L162.89,219.16L164.17,219.5L165.53,218.9L166.72,217.74L169.67,216.74L169.67,215.45L169.18,214.36L167.97,212.78L167.23,210.74L168.72,210.32L174.81,213.65z"/>
		<path id="IR-19" title="Gilan" class="land" d="M201.65,71.33L198.98,70.77L197.65,70.76L196.73,71.27L195.91,72.09L194.86,72.75L193.74,73.23L192.75,73.52L190.84,73.36L191.08,73.9L192.4,75.08L193.26,76.2L193.49,77.19L194.49,77.6L196.05,77.96L196.69,78.64L196.32,79.6L186.97,90.73L186.12,92.76L185.76,95.54L184.44,97.6L184.34,100.47L188.15,111.02L195.02,121.85L197.3,124.21L199.94,126.29L201.33,128.07L201.37,129.55L201.19,131.83L201.54,134.56L201.99,135.83L208.23,139.82L212.82,144.68L214.58,147.52L217.03,156.03L220.94,157.91L221.02,158.79L221.54,160.43L223.88,163.4L226.4,165.77L232.08,167.47L234.2,167.39L235.46,167.6L236.36,168.23L240.18,168.99L242.23,168.62L250.01,164.4L250.87,164.1L251.78,163.61L255.22,162.85L260.84,163.4L262.99,162.01L265.52,157.46L266.43,153.18L268.09,151.52L270.25,150.37L271.66,148.41L272.06,147.09L272.08,146.92L272.09,146.92L269.48,145.15L268.68,144.92L268.05,144.54L266.01,142.05L263.02,139.79L261.57,138.41L260.33,136.35L259.36,133.54L258.76,132.61L258.38,131.86L257.84,129.98L257.48,129.25L257.64,127.37L256.33,126.13L254.39,125.37L249.01,124.13L245.56,122.78L245.88,122.36L246.12,122.4L246.58,122.53L246.97,122.46L245.5,121.69L244.16,121.94L242.75,122.52L241.04,122.78L225.13,120.63L222.04,119.58L215.36,116.1L212.34,113.92L209.55,111.02L207.45,107.87L206.59,105.9L206.16,103.84L206.22,103.47L206.35,103L206.34,102.46L204.87,100.07L204.56,99.26L204.38,98.13L204.42,96.94L204.75,95.93L203.03,89.8L202.46,83.37L201.67,81.42L201.59,78.64L201.3,77.51L201.77,75.97L201.65,71.33z"/>
		<path id="IR-17" title="Kermanshah" class="land" d="M108.61,255.69L106.84,254.46L96.89,240.84L89.03,234.63L87.89,234.25L87.67,234.76L87.16,235.38L86.79,236.02L86.9,236.82L87.48,237.22L89.08,237.21L89.71,237.73L89.55,239.06L88.66,240.6L88.1,242.03L88.95,243.03L88.63,243.64L88.18,243.88L87.67,243.98L86.61,244.33L85.87,244.14L85.46,244.18L84.35,244.85L83.74,245.42L83.08,245.59L81.84,245.06L81.31,245.1L80.88,244.92L80.01,244.35L79.4,244.14L79.11,244.26L78.54,245.2L78.5,245.44L78.61,246.06L78.53,246.3L78.28,246.43L77.7,246.49L77.43,246.58L76.99,247.01L76.79,247.6L76.78,248.27L76.9,248.95L76.9,248.96L77.28,250.27L77.17,251.22L76.82,252.14L76.5,253.38L75.88,254.22L74.76,253.83L74.27,253.57L73.53,253.17L72.57,253.22L72.3,254.19L72.38,255.47L72.17,256.7L71.02,257.5L69.84,257.62L69.32,257.84L68.91,258.41L68.78,259.02L68.88,260.04L68.75,260.62L67.6,261.94L67.28,262.75L67.9,263.45L68.24,263.65L68.61,263.94L68.92,264.3L69.06,264.72L69.19,265.25L69.39,265.56L69.6,265.8L69.78,266.15L69.91,267.1L69.93,268.05L70.06,268.9L70.52,269.56L70.64,269.88L70.63,270.42L70.52,270.96L70.35,271.28L70.11,271.33L69.19,271.01L66.35,270.78L65.07,270.47L63.65,269.72L62.04,269.25L61.87,270.63L62.21,272.66L62.15,274.15L61.96,274.55L61.72,274.91L61.45,275.22L61.15,275.5L58.98,275.99L58.58,276.65L59.86,280.77L60.39,281.86L61.15,282.43L61.98,281.76L62.9,281.76L63.76,282.3L64.39,283.29L64.62,284.42L64.54,285.66L63.98,288.07L63.78,288.52L63.2,289.47L63.11,289.93L63.31,290.5L63.62,290.93L63.85,291.36L63.85,291.92L63.43,292.48L61.76,293.86L61.15,294.51L60.14,295.4L59.68,296.51L59.33,297.78L58.7,299.17L58.7,299.17L58.69,299.17L58.35,299.53L57.95,299.81L57.06,300.21L57.92,301.41L58.85,301.94L59.93,302.01L61.15,301.82L61.26,301.84L61.35,301.88L61.42,301.95L65.11,308.66L65.66,309.28L66.3,309.82L66.84,310.42L67.14,311.25L67.32,312.25L67.6,313.13L68.02,313.94L68.58,314.75L69.21,315.38L71.16,316.78L71.31,317.17L72.25,316.38L73.12,309.17L74.7,304.2L75.15,301L74.57,299.09L75.34,298.2L77.77,298.27L84.19,297.46L90.39,300.01L93.73,300.25L97.07,301.01L99.85,302.72L102.89,305.37L113.28,308.73L118.11,309.12L125.16,307.32L131.64,307.62L132.51,305.92L133.08,302.69L132.47,301.44L131.33,299.73L131.33,298.21L137.98,296.67L139.38,296.79L140.07,297L140.79,296.49L141.38,295.52L141.22,295.14L141.18,294.6L141.3,293.67L141.22,293.09L141.01,292.69L140.73,292.39L140.48,292.06L140.38,291.57L140.63,290.86L143.01,289.68L145.97,289.53L147.98,288.49L148.22,285.69L147.84,282.98L147.96,281.86L148.76,281.33L149.96,281.01L152.81,281.4L153.52,279.98L155.05,277.67L159.15,277.37L163.8,278.37L165.06,277.32L164.95,274.99L165.41,271.67L164.99,269.62L164.2,268.42L163.25,268.63L161.34,269.47L157.81,273.16L156.75,271.55L156.14,269.47L155.02,268.88L153.66,268.61L150.62,266.94L148.52,265.24L148.12,263.24L148.71,262.45L150.03,261.93L154.17,261.45L156.12,258.58L157.76,254.89L159.12,253.31L159.34,251.9L159.32,251.14L158.04,251.18L156.26,250.92L149.9,243.73L145.16,241.57L143.53,240.17L142.33,240.07L141.88,241.04L142.63,242.54L142.49,244.26L141.07,245.56L135.15,245.96L134.72,246.94L134.47,250.21L133.63,250.7L132.01,250.58L129.44,250.84L126.94,253.45L125.2,254.04L124.67,255.14L124.66,256.6L123.78,257.61L122.43,257.83L121.62,258.92L121.43,260.58L119.84,261.42L117.04,261.83L113.31,261.39L110.83,261.66L109.46,260.15L109.4,258.17L109.73,256.69L109.56,255.62L108.61,255.69z"/>
		<path id="IR-01" title="East Azarbaijan" class="land" d="M117.46,45.98L119.28,45.64L120.94,44.67L123.51,44.33L127.1,41.85L127.96,40.68L128.23,39.71L128.39,38.66L127.63,35.4L127.01,34.32L125.74,33.7L125.17,33.05L125.12,32.5L124.97,32.4L124.65,31.34L122.17,32.75L121.67,32.84L121.05,32.67L119.89,32.15L119.24,32.17L118.56,32.49L118.55,32.5L117.92,33.02L117.36,33.68L116.29,35.53L116.06,35.85L115.73,36.12L115.04,36.5L114.72,36.76L114.22,37.55L113.53,39.17L112.85,39.82L110.45,41.05L109.69,41.69L109.14,42.4L107.97,44.82L107.5,45.59L106.93,46.22L106.29,46.75L105.62,47.17L104.72,47.54L103.98,47.58L103.23,47.37L98.92,45.44L98.36,45.32L97.91,45.38L96.91,45.7L95.31,45.77L94.76,45.89L93.96,46.28L91.81,47.85L91.08,48.2L88.33,48.56L87.92,48.62L85.52,48.01L82.78,46.77L74.06,44.93L73.11,44.55L70.99,43.72L67.3,43.68L64.94,43.1L63.8,43.06L63.48,42.99L63.29,42.95L62.44,42.45L61.78,42.27L61.52,42.54L56.96,47.42L56.04,49.64L54.84,55.27L55.41,58.3L56.47,61.1L56.45,63.73L54.9,66.53L47.8,73.9L45.47,77.85L45.02,80.14L45.57,81.9L48.19,85.46L48.47,85.46L48.47,86.19L48.71,86.58L49.05,86.86L49.32,87.29L49.57,88.23L49.64,88.8L49.47,89.06L49.34,89.33L49.32,91.08L50.77,105.23L51.6,106.35L51.79,106.77L51.84,106.98L52.17,110.13L51.99,110.41L51.6,110.63L51.22,110.95L51.04,111.54L51.35,112.36L51.92,113.41L52.19,114.36L54.97,117.7L55.99,120.08L55.52,126.56L56.09,129.37L57.65,131.72L69.73,139.66L75.12,140.62L79.54,140.69L85.27,145.92L85.97,147.31L91.12,150.22L92.9,151.88L94.82,152.69L96.04,151.85L96.72,150.77L96.85,150.31L97.46,148.86L98.82,147.16L101.3,145.54L103.35,145.11L104.35,145.22L105.49,144.14L107.23,142.99L109.14,143.3L110.46,144.63L112.1,145.66L114.21,146.13L115.51,147.25L115.7,148.35L115.15,149.12L116.8,153.91L116.76,157.35L118.25,159.53L122.28,160.08L132.11,158.94L131.86,157.26L131.85,154.76L132.64,153.13L138.91,146.75L140.65,143.85L141.89,142.95L144.62,141.64L146.88,139.19L148.31,138.33L149.77,137.71L162.79,136.2L166.71,136.81L169.4,136.36L179.3,137.39L182.39,136.17L183.83,135.02L184.31,134.74L183.74,134.53L183.17,134.22L182.79,134.28L182.21,133.09L181.62,132.77L180.2,132.84L179.58,133.06L179.21,133.52L178.9,133.52L179.11,132.74L179.21,132.45L177.33,130.91L176.45,130.01L173.91,128.33L172.84,125.78L172.5,122L171.41,121.04L168.37,119.45L167.44,119.27L167.18,119.42L163.14,116.92L161.9,111.2L162.27,106.44L163.2,104.44L163.63,103L163.19,102.05L160.43,99.49L157.16,95.03L155.07,89.84L154.81,85.66L153.58,81.8L150.69,80.36L141.39,81.72L140.18,81.5L139.61,81.08L138.3,79.8L135.66,80.12L133.67,80.91L133.18,79.28L133.37,76.57L134.22,74.64L135.27,73.27L136.58,70.82L139.89,68.39L141.62,66.51L144.44,65.68L147.41,66.15L149.43,64.78L148.64,62.18L146.47,60.95L146.44,59.47L147.97,57.41L148.4,53.86L146.01,47.87L145.91,43.87L145.26,42.93L145.84,36.88L144.2,36.27L141.53,38.66L138.74,40.34L137.06,40.19L133.94,42.3L129.2,50.58L129.76,51.44L130.38,51.68L129.87,52.35L127.28,54.31L125.71,56.45L123.98,57.85L117.79,56.09L115.07,56.86L112.23,58.39L109.41,59.42L107.29,58.25L106.11,55.35L106.78,52.04L108.44,49.85L109.55,49.2L109.97,48.44L111.51,48.27L113.71,48.8L114.28,48.3L114.56,46.83L114.58,45.27L114.69,44.46L115.55,44.41L117.46,45.98z"/>
		<path id="IR-02" title="West Azarbaijan" class="land" d="M24.37,0L23.35,0.3L18.95,3.93L18.77,4.54L18.98,6.3L18.9,6.94L18.87,7.14L18.63,7.84L17.26,10.6L17.07,11.32L16.99,12.21L17.07,12.96L17.21,13.65L17.18,14.29L16.77,14.93L16.77,14.93L16.77,14.93L16.56,16.13L16.71,17.14L16.69,18.11L15.99,19.17L15.2,19.76L13.05,20.74L12.14,20.96L11.09,20.87L8.23,19.44L7.24,19.33L5,19.93L4.04,20.03L3.12,19.92L2.48,19.94L1.86,20.16L1.01,20.69L0.55,21.34L0.8,21.99L1.89,23.27L1.9,23.3L2.08,23.8L2.32,24.94L2.81,26L2.8,26.39L2.7,26.75L2.72,27.23L2.86,27.68L3.36,28.74L3.39,29.21L3.1,30.18L3.15,30.64L4.22,31.47L6.06,32.44L7.66,33.57L8,34.89L7.18,36.5L6.97,37.35L7.35,39.45L6.95,40.08L6.28,40.64L5.7,41.63L5.7,41.64L5.92,42.01L6.05,42.37L6.22,43.19L6.47,43.58L6.85,43.87L7.16,44.2L7.19,44.68L7.17,45.12L7.31,45.53L7.49,45.93L7.89,47.12L8.45,47.93L9.12,48.58L11.32,49.63L11.52,51.19L10.39,55.03L10.23,56.1L10.3,56.76L10.51,57.4L10.72,58.35L10.53,58.74L10.17,59.1L10.05,59.43L10.56,59.7L11.31,59.94L11.63,60.15L11.93,60.49L12.23,61.37L12.22,62.47L12.03,64.56L12.41,67.25L12.36,68.16L11.83,70.29L11.83,70.91L11.96,72.25L11.93,72.74L11.8,73.6L11.92,74.06L12.3,74.33L12.91,74.62L14.97,75L16.34,74.2L16.86,74.09L17.51,74.34L18.1,74.84L18.6,75.55L18.92,76.38L18.94,77.22L18.01,78.57L16.51,79.74L15.35,81.07L15.53,83.59L15.38,84.62L15.13,85.65L14.86,86.42L14.55,86.83L13.81,87.14L13.47,87.44L13.41,87.9L13.75,88.89L13.52,89.22L12.72,89.61L12.18,90.04L11.8,90.71L11.45,91.81L11.09,92.62L10.09,93.75L9.71,94.51L9.71,94.51L9.7,94.51L9.7,94.52L9.35,95.19L9.1,95.83L9.03,96.5L9.23,97.24L9.27,97.9L8.9,98.46L8.48,99L8.42,99.19L8.3,99.59L9.02,100.73L10.47,100.97L13.15,100.65L13.64,100.8L15.13,101.53L15.58,101.84L15.82,102.32L15.97,102.93L16.21,103.58L16.67,104.17L16.99,104.28L17.27,104.17L17.54,104.12L17.86,104.36L17.89,104.62L17.72,105.46L17.69,105.77L18,106.37L18.58,106.43L19.24,106.19L19.77,105.89L20.9,105.76L22.05,106.29L23.08,107.19L24.61,109.06L24.7,109.55L24.28,110.23L22.84,111.39L22.5,111.85L22.32,113.43L23.15,114.38L24.08,115.08L24.25,115.98L23.87,117.03L23.6,118.32L23.52,119.61L23.74,120.67L23.74,120.68L23.91,121.56L23.36,123.12L23.61,123.97L24.17,124.29L25.71,124.43L26.35,124.92L26.93,126.41L27.32,126.84L28.82,126.61L29.2,127.09L29.44,127.82L29.79,128.53L32.17,130.06L33.11,131.16L32.98,132.84L32.49,133.48L31.92,133.81L31.41,134.25L31.12,135.18L31.25,136.23L31.64,137.11L31.9,137.99L31.64,138.99L31.08,140.49L31.09,141L31.41,141.92L31.66,142.26L31.95,142.4L32.26,142.49L32.56,142.71L32.72,143.05L32.93,143.84L33.12,144.1L33.51,144.18L34.32,143.93L34.72,143.91L35.01,144.07L35.48,144.59L36.38,145.06L36.66,145.53L36.59,146.09L36.14,146.67L35.91,148.05L36.14,148.96L36.52,149.81L36.72,150.97L36.5,152.21L35.92,153.14L34.46,154.95L34.01,156.22L34.34,157.12L35.16,157.68L36.24,157.92L37.52,157.85L38.12,157.95L38.64,158.41L39.02,158.86L39.45,159.17L39.93,159.32L40.47,159.34L41.16,159.72L41.77,160.55L42.78,162.41L43.22,163.52L43.15,164.48L42.35,166.35L41.91,168.11L41.87,169.2L41.74,169.3L41.23,169.5L41.05,169.62L40.96,170.44L41.56,171.22L41.71,171.35L42.37,171.91L42.9,172.49L42.94,173.22L43.2,173.64L43.56,173.98L43.89,174.48L44.09,175.15L44.16,175.65L44.31,176.12L44.78,176.67L45.91,177.19L47.11,177.1L49.43,176.17L50.48,176.25L51.2,177.17L51.65,178.46L51.85,179.65L51.96,181.86L52.24,182.76L53.02,183.75L52.02,184.4L52.25,185.02L53.02,185.62L53.63,186.22L53.82,187.21L53.72,189.57L53.93,190.65L55.21,192.32L55.73,193.36L55.56,194.39L55.05,195.2L54.55,196.25L54.3,197.31L54.57,198.13L54.57,198.14L54.57,198.14L54.58,198.14L54.58,198.15L55.31,198.9L56.2,199.02L57.12,198.71L57.94,198.15L57.94,198.14L57.95,198.14L57.95,198.14L57.96,198.13L58.7,197.93L60.07,197.24L61.15,197.22L62.07,197.56L62.07,197.56L62.09,197.53L63.5,196.68L65.12,195.06L65.8,193.39L68.09,190.77L68.67,188.27L69.57,187.34L70.06,186.52L71.3,185.15L78.03,182.98L80.02,179.95L80.08,177.47L81,176.29L84.62,174.85L95.03,176.34L116.44,174.35L116.92,174.76L117.23,175.38L117.81,176.16L118.64,176.86L119.35,177.64L120.93,178.74L125.23,179.93L129.92,180.34L133.04,178.96L134.79,176.93L135.51,175.52L135.73,174.72L135.43,173.86L135.61,172.85L136.83,172.1L137.84,171.78L132.11,158.94L122.28,160.08L118.25,159.53L116.76,157.35L116.8,153.91L115.15,149.12L115.7,148.35L115.51,147.25L114.21,146.13L112.1,145.66L110.46,144.63L109.14,143.3L107.23,142.99L105.49,144.14L104.35,145.22L103.35,145.11L101.3,145.54L98.82,147.16L97.46,148.86L96.85,150.31L96.72,150.77L96.04,151.85L94.82,152.69L92.9,151.88L91.12,150.22L85.97,147.31L85.27,145.92L79.54,140.69L75.12,140.62L69.73,139.66L57.65,131.72L56.09,129.37L55.52,126.56L55.99,120.08L54.97,117.7L52.19,114.36L51.92,113.41L51.35,112.36L51.04,111.54L51.22,110.95L51.6,110.63L51.99,110.41L52.17,110.13L51.84,106.98L51.79,106.77L51.6,106.35L50.77,105.23L49.32,91.08L49.34,89.33L49.47,89.06L49.64,88.8L49.57,88.23L49.32,87.29L49.05,86.86L48.71,86.58L48.47,86.19L48.47,85.46L48.19,85.46L45.57,81.9L45.02,80.14L45.47,77.85L47.8,73.9L54.9,66.53L56.45,63.73L56.47,61.1L55.41,58.3L54.84,55.27L56.04,49.64L56.96,47.42L61.52,42.54L61.78,42.27L61.29,42.14L60.35,41.68L59.47,41.09L58.99,40.52L58.92,39.95L59.04,39.49L59.21,39.05L59.3,38.5L59.1,38.14L58.11,37.7L57.72,37.4L57.51,36.96L57.19,35.81L57.02,35.39L56.63,34.97L56.24,34.74L55.88,34.47L55.61,33.93L55.97,33.14L55.73,32.57L55.18,32.22L54.6,32.11L54.19,31.91L54.2,31.46L54.31,30.95L54.19,30.62L53.81,30.57L53.43,30.72L53.14,30.92L53.04,31.02L48.72,29.59L47.64,29.92L47.37,29.11L46.94,26.45L46.65,25.88L46.3,25.36L46.05,24.8L45.29,23.1L44.96,22.59L44.58,22.37L44.16,21.87L43.82,21.31L43.69,20.93L43.46,20.65L43.44,20.64L41.97,19.63L41.82,19.44L41.73,19.2L41.58,18.99L41.26,18.9L40.81,18.91L40.6,18.87L39.54,18.1L39.39,17.72L39.73,17.07L38.87,16.3L38.36,15.22L37.12,10.06L36.62,8.9L35.75,8.28L35.91,8.12L36.03,7.88L35.08,7.85L34.19,7.68L34.03,7.58L33.44,7.24L33.33,7.08L29.97,4.64L29.16,3.95L26.69,2.8L26.12,2.15L25.01,0.45L24.37,0z"/>
		<path id="IR-28" title="Qazvin" class="land" d="M232.08,167.47L226.4,165.77L223.88,163.4L221.54,160.43L221.02,158.79L220.94,157.91L217.03,156.03L213.66,157.19L209.15,160.19L207.47,164.1L208.33,167.37L210.55,170.14L211.88,173.49L213.26,175.58L215.31,176.61L216.57,176.69L217.37,177.13L218.15,177.98L219.23,178.59L220,179.99L220.67,182.53L221.98,184.68L222.93,186.8L223.58,192.24L222.63,193.64L215.08,195.68L210.91,198.05L208.37,200.93L208.15,202.95L208.21,203.52L204.43,201.77L201.72,201.58L197.97,202.63L195.66,204.33L194.16,204.64L192.39,204.7L191.09,204.99L190.23,205.57L190.35,207.16L195.6,211.89L198.68,216.43L200.61,215.58L205.14,215.66L208.59,217.64L210.16,219.62L208.9,221.54L211.73,223.7L217.02,224.61L218.18,224.29L224.06,225.79L225.08,226.5L232.34,226.3L233.58,223.44L235.32,222.15L242.6,219.93L244.75,218.86L247.02,218.2L248.93,218.09L256.35,214.85L258.82,214.71L260.05,214.89L259.16,213.41L258.11,211.06L257.77,209.49L258.28,207.5L260.56,205.3L268.94,201.2L270.36,199.84L270.85,197.96L272.83,193.83L274.14,189.4L272.23,187.75L269.29,186.87L267.76,185.56L265.65,182.65L266.85,180.84L271.54,180.45L281.38,181.5L281.34,180.48L280.86,179.08L274.16,173.96L271.87,172.72L260.84,163.4L255.22,162.85L251.78,163.61L250.87,164.1L250.01,164.4L242.23,168.62L240.18,168.99L236.36,168.23L235.46,167.6L234.2,167.39L232.08,167.47z"/>
		<path id="IR-11" title="Zanjan" class="land" d="M201.99,135.83L199.2,134.34L197.75,134.79L196.12,135.91L194.63,135.71L193.45,135.05L192.65,135.36L192.15,136.25L192.15,137.13L191.59,138.06L190.31,138.33L187.22,135.03L185.52,134.4L184.31,134.74L183.83,135.02L182.39,136.17L179.3,137.39L169.4,136.36L166.71,136.81L162.79,136.2L149.77,137.71L148.31,138.33L146.88,139.19L144.62,141.64L141.89,142.95L140.65,143.85L138.91,146.75L132.64,153.13L131.85,154.76L131.86,157.26L132.11,158.94L137.84,171.78L139.04,172.99L159.89,177.15L160.03,177.38L161.33,178.83L161.62,179.38L161.78,180.37L162.18,181.52L162.64,182.52L163.03,183.09L162.6,183.49L162.52,183.95L162.78,185.19L162.72,185.54L162.55,185.87L162.42,186.21L162.47,186.59L162.64,186.66L163.36,186.75L164.14,189.64L164.13,194.85L163.22,198.6L161.59,200.31L160.91,202.16L161.48,203.51L172.87,210.46L173.63,211.16L174.45,212.56L174.81,213.65L176.21,216.2L178.07,217.36L186.95,217.66L190.58,219.64L194.06,220.5L197.19,219.4L198.71,217.33L198.68,216.43L195.6,211.89L190.35,207.16L190.23,205.57L191.09,204.99L192.39,204.7L194.16,204.64L195.66,204.33L197.97,202.63L201.72,201.58L204.43,201.77L208.21,203.52L208.15,202.95L208.37,200.93L210.91,198.05L215.08,195.68L222.63,193.64L223.58,192.24L222.93,186.8L221.98,184.68L220.67,182.53L220,179.99L219.23,178.59L218.15,177.98L217.37,177.13L216.57,176.69L215.31,176.61L213.26,175.58L211.88,173.49L210.55,170.14L208.33,167.37L207.47,164.1L209.15,160.19L213.66,157.19L217.03,156.03L214.58,147.52L212.82,144.68L208.23,139.82L201.99,135.83z"/>
		<path id="IR-24" title="Hamadan" class="land" d="M174.81,213.65L168.72,210.32L167.23,210.74L167.97,212.78L169.18,214.36L169.67,215.45L169.67,216.74L166.72,217.74L165.53,218.9L164.17,219.5L162.89,219.16L160.94,215.08L159.99,215.18L157.81,217.61L157.17,218.9L160.05,223.18L164.52,233.16L166.54,235.64L168.24,236.7L170.6,239.05L171.74,243.73L170.92,247.51L169.46,249.84L168.09,251.06L167.19,250.57L165.86,247.29L165.09,247.49L164.62,248.91L163.12,249.73L160.58,250.45L159.32,251.14L159.34,251.9L159.12,253.31L157.76,254.89L156.12,258.58L154.17,261.45L150.03,261.93L148.71,262.45L148.12,263.24L148.52,265.24L150.62,266.94L153.66,268.61L155.02,268.88L156.14,269.47L156.75,271.55L157.81,273.16L161.34,269.47L163.25,268.63L164.2,268.42L164.99,269.62L165.41,271.67L164.95,274.99L165.06,277.32L163.8,278.37L159.15,277.37L155.05,277.67L153.52,279.98L152.81,281.4L153.84,281.86L155.62,283.01L156.47,284.25L174.24,295.95L183.43,297.06L184.96,297.64L186.19,297.31L188.36,295.07L189.44,294.77L191.64,294.9L194.36,294.6L205.65,299.43L209.96,295.55L210.69,294.54L210.82,293.37L210.06,290.14L209.82,287.41L209.17,284.67L206.23,278.88L205.9,273.6L205.2,270.43L203.11,269.6L202.51,268.19L203.95,267.61L208.22,268.05L210.13,268.97L211.06,268.76L210.35,264.87L210.5,261.34L211.6,259.54L212.09,257.76L211.63,254.82L212.66,253.25L220.2,252.85L223.77,253.47L224.77,254.92L223.89,256.8L224.52,259.09L226.15,261.03L227.49,262.26L229.3,262.44L230.31,260.4L229.42,254.97L228.38,252.46L226.39,250.1L224.27,249.08L219.83,247.86L217.97,246.91L217.02,245.98L216.91,245.26L217.65,244.41L218.9,244.28L221.29,243.54L223.29,241.19L222.77,238.87L220.92,235.79L220.14,232.39L221.44,230.74L222.56,230.65L222.65,231.6L222.61,232.88L223.42,234.05L224.83,234.31L226.23,232.76L226.38,230.81L225.4,229.52L225.05,227.71L225.08,226.5L224.06,225.79L218.18,224.29L217.02,224.61L211.73,223.7L208.9,221.54L210.16,219.62L208.59,217.64L205.14,215.66L200.61,215.58L198.68,216.43L198.71,217.33L197.19,219.4L194.06,220.5L190.58,219.64L186.95,217.66L178.07,217.36L176.21,216.2L174.81,213.65z"/>
		<path id="IR-26" title="Qom" class="land" d="M326.13,254.96L302.55,240.89L292.61,237.88L280.72,237.75L280.71,237.62L279.54,239.27L278.16,243.22L277.44,250.98L276.94,252.92L276.18,253.37L271.89,254.82L266.76,255.63L264.3,257.26L260.7,258.29L256.97,257.79L254.61,259.7L254.55,262.99L255.41,264.2L254.97,265.21L251.11,267.39L250.72,269.98L252.96,272.6L254.79,274.25L256.29,274.94L257.94,274.79L259.17,275.54L260.38,276.97L261.01,278.45L260.84,280.51L261.84,282.99L263.76,285.37L266.49,287.65L277.17,288.65L281.43,291L290.99,293.6L289.81,292.97L288.95,290.81L290.19,280.98L290.68,279.52L292.23,277.96L296.17,276.24L305.11,275.21L308.31,275.37L322.27,271.75L323.64,269.77L325.46,265.49L326.58,261.08L326.69,256.97L326.13,254.96z"/>
		<path id="IR-22" title="Markazi" class="land" d="M277.06,220.76L276.76,219.07L276.78,216.25L275.18,214.35L272.85,214.32L272.32,215.7L273.92,217.92L273.92,218.77L273.5,219.53L272.45,218.92L270.07,216.77L266.01,215.57L261.84,215.31L260.05,214.89L258.82,214.71L256.35,214.85L248.93,218.09L247.02,218.2L244.75,218.86L242.6,219.93L235.32,222.15L233.58,223.44L232.34,226.3L225.08,226.5L225.05,227.71L225.4,229.52L226.38,230.81L226.23,232.76L224.83,234.31L223.42,234.05L222.61,232.88L222.65,231.6L222.56,230.65L221.44,230.74L220.14,232.39L220.92,235.79L222.77,238.87L223.29,241.19L221.29,243.54L218.9,244.28L217.65,244.41L216.91,245.26L217.02,245.98L217.97,246.91L219.83,247.86L224.27,249.08L226.39,250.1L228.38,252.46L229.42,254.97L230.31,260.4L229.3,262.44L227.49,262.26L226.15,261.03L224.52,259.09L223.89,256.8L224.77,254.92L223.77,253.47L220.2,252.85L212.66,253.25L211.63,254.82L212.09,257.76L211.6,259.54L210.5,261.34L210.35,264.87L211.06,268.76L210.13,268.97L208.22,268.05L203.95,267.61L202.51,268.19L203.11,269.6L205.2,270.43L205.9,273.6L206.23,278.88L209.17,284.67L209.82,287.41L210.06,290.14L210.82,293.37L210.69,294.54L209.96,295.55L205.65,299.43L205,300.49L204.7,302.11L205.22,303.46L205.36,304.6L203.71,308.43L203.36,309.53L203.15,310.73L203.69,311.77L205.79,313L208.53,314L213.2,314.41L214.34,314.83L217.65,312.73L218.43,311.91L219.84,307.56L221.68,306.51L223.96,305.73L226.04,304.54L228.31,305.27L230.13,307.47L231.26,309.4L231.3,310.73L230.64,312.15L230.19,313.63L230.59,314.79L231.94,315.95L235.05,317.52L236.47,319.02L237.75,320.03L238.72,319.38L238.99,318.09L239.8,316.48L241.25,315.44L242.18,316L242.83,317.18L244.17,318.22L245.06,319.14L245,320.6L245.29,322.01L247.94,323.44L248.3,323.84L251.73,320.99L258.3,317.08L275.55,312.53L278.14,310.93L280.46,308.96L283.07,308.13L285.44,308.12L286.54,306.16L290.49,296.58L290.99,293.6L281.43,291L277.17,288.65L266.49,287.65L263.76,285.37L261.84,282.99L260.84,280.51L261.01,278.45L260.38,276.97L259.17,275.54L257.94,274.79L256.29,274.94L254.79,274.25L252.96,272.6L250.72,269.98L251.11,267.39L254.97,265.21L255.41,264.2L254.55,262.99L254.61,259.7L256.97,257.79L260.7,258.29L264.3,257.26L266.76,255.63L271.89,254.82L276.18,253.37L276.94,252.92L277.44,250.98L278.16,243.22L279.54,239.27L280.71,237.62L284.29,226.02L284.27,222.47L283.21,220.4L281.29,218L279.39,218.18L278.24,220.53L277.06,220.76z"/>
		<path id="IR-03" title="Ardebil" class="land" d="M163.72,3.46L163.7,3.45L163.22,4.17L162.79,4.57L162.28,4.7L159.13,4.64L158.15,4.91L157.35,5.47L156.71,6.13L154.93,7.95L149.95,10.76L149.21,11.18L147.02,13.41L146.48,13.78L145.55,13.88L142.66,14.88L140.93,15.83L139.57,16.97L137.52,19.63L137.51,19.64L136.14,21.04L134.9,21.75L134.42,22.02L130.3,23.64L128.32,24.85L127.91,25.31L127.77,25.84L126.28,28.25L125.58,30.27L125.37,30.67L124.93,31.18L124.65,31.34L124.97,32.4L125.12,32.5L125.17,33.05L125.74,33.7L127.01,34.32L127.63,35.4L128.39,38.66L128.23,39.71L127.96,40.68L127.1,41.85L123.51,44.33L120.94,44.67L119.28,45.64L117.46,45.98L115.55,44.41L114.69,44.46L114.58,45.27L114.56,46.83L114.28,48.3L113.71,48.8L111.51,48.27L109.97,48.44L109.55,49.2L108.44,49.85L106.78,52.04L106.11,55.35L107.29,58.25L109.41,59.42L112.23,58.39L115.07,56.86L117.79,56.09L123.98,57.85L125.71,56.45L127.28,54.31L129.87,52.35L130.38,51.68L129.76,51.44L129.2,50.58L133.94,42.3L137.06,40.19L138.74,40.34L141.53,38.66L144.2,36.27L145.84,36.88L145.26,42.93L145.91,43.87L146.01,47.87L148.4,53.86L147.97,57.41L146.44,59.47L146.47,60.95L148.64,62.18L149.43,64.78L147.41,66.15L144.44,65.68L141.62,66.51L139.89,68.39L136.58,70.82L135.27,73.27L134.22,74.64L133.37,76.57L133.18,79.28L133.67,80.91L135.66,80.12L138.3,79.8L139.61,81.08L140.18,81.5L141.39,81.72L150.69,80.36L153.58,81.8L154.81,85.66L155.07,89.84L157.16,95.03L160.43,99.49L163.19,102.05L163.63,103L163.2,104.44L162.27,106.44L161.9,111.2L163.14,116.92L167.18,119.42L167.44,119.27L168.37,119.45L171.41,121.04L172.5,122L172.84,125.78L173.91,128.33L176.45,130.01L177.33,130.91L179.21,132.45L179.11,132.74L178.9,133.52L179.21,133.52L179.58,133.06L180.2,132.84L181.62,132.77L182.21,133.09L182.79,134.28L183.17,134.22L183.74,134.53L184.31,134.74L185.52,134.4L187.22,135.03L190.31,138.33L191.59,138.06L192.15,137.13L192.15,136.25L192.65,135.36L193.45,135.05L194.63,135.71L196.12,135.91L197.75,134.79L199.2,134.34L201.99,135.83L201.54,134.56L201.19,131.83L201.37,129.55L201.33,128.07L199.94,126.29L197.3,124.21L195.02,121.85L188.15,111.02L184.34,100.47L184.44,97.6L185.76,95.54L186.12,92.76L186.97,90.73L196.32,79.6L196.69,78.64L196.05,77.96L194.49,77.6L193.49,77.19L193.26,76.2L192.4,75.08L191.08,73.9L190.84,73.36L190.63,73.34L189.3,72.05L188.17,70.16L187.64,69.47L186.61,68.17L185.99,67.3L185.3,66.53L184.62,65.47L183.95,64.86L183.42,64.14L183.13,62.74L182.65,61.59L181.68,61.59L179.58,62.57L178.31,62.54L177.56,61.83L176.91,60.87L174.91,59.26L174.83,58.36L175,57.33L174.81,56.55L174.7,56.11L174.18,55.67L168.7,52.96L166.01,50.8L165.19,49.29L165.09,47.1L165.47,46.49L167.64,45.15L167.76,44.8L167.75,44.4L167.89,44.06L175.53,42.7L177.24,41.64L177.24,41.64L177.24,41.63L177.24,41.63L177.25,41.63L177.62,41.07L177.94,40.38L177.95,40.36L178.14,39.64L178.17,38.89L177.95,38.22L176.7,35.54L176.07,34.93L173.71,33.94L171.35,31.65L170.34,30.22L169.79,28.78L169.86,26.95L170.63,25.43L171.82,24.28L173.22,23.56L175.81,23.04L177.99,21.56L179.06,21.22L179.5,21.08L178.58,19.14L177.41,17.54L174.58,14.91L167.62,6.53L165.09,4.16L164.29,3.6L163.72,3.46z"/>
		<path id="IR-23" title="Hormozgan" class="land" d="M457.4,687.92L457.22,687.39L457.17,686.95L456.96,686.62L456.25,686.81L455.65,687.14L455.8,687.59L455.94,687.87L455.92,688.15L456.11,688L456.5,688.38L456.74,688.24L457.08,688.21L457.4,687.92zM436.67,686.3L436.6,685.48L436.39,685.07L435.41,685.37L434.87,685.66L435.03,686.17L435.69,686.48L436.25,686.61L436.67,686.3zM435.55,670.08L436.42,668.3L436.27,667.98L436.07,667.73L435.84,667.55L435.55,667.42L435.14,666.96L434.75,666.88L434.4,667.06L434.14,667.42L433.97,667.95L433.97,667.95L433.99,668.38L434.09,668.84L434.14,669.45L434.36,669.72L434.85,669.97L435.33,670.12L435.55,670.08zM415.76,658.9L415.85,658.63L415.94,658.35L415.9,658.06L415.86,657.8L415.75,657.71L415.58,657.55L415.29,657.39L415.28,657.38L415.24,657.06L415.24,657.01L415.24,657.01L415.25,656.59L415.25,656.58L415.22,656.49L415.14,656.29L415.14,656.28L414.55,656.05L413.01,655.9L412.32,655.65L411.51,655.61L410.77,655.84L410.16,656.3L409.75,656.95L410.59,658.32L411.93,658.96L412.24,658.98L415.3,659.15L415.76,658.9zM491.97,652.89L492.56,651.9L492.48,650.81L492.16,650.32L491.76,650.4L491.09,650.92L490.56,651.95L490.46,653.02L491.13,653.39L491.97,652.89zM399.67,650.81L399.34,650.11L398.85,649.88L398.42,649.78L397.6,649.8L397.27,650.31L397.68,650.88L398.4,651.25L399.13,651.35L399.67,650.81zM388.2,644.58L387.86,644.27L387.31,643.78L386.35,643.4L383.25,643.17L379.76,642.09L379.36,642.12L379.03,642.24L378.73,642.31L378.57,642.51L378.94,642.94L380.24,644.03L380.79,644.38L380.88,644.44L381.61,644.75L383.97,645.16L384.76,645.16L385.51,644.73L386.01,644.61L387.6,644.75L388.2,644.58zM512.23,642.93L513.47,641.84L513.26,640.41L511.71,640.56L510.66,641.05L510.06,641.9L509.87,643.13L510.65,643.45L512.23,642.93zM503.63,639.77L504.55,638.95L507.1,638.29L507.77,637.91L508.43,637.53L508.1,636.66L507.86,636.48L507.2,635.97L506.14,635.51L505.33,635.31L503.7,635.34L498.24,636.58L493.87,639.4L492.3,639.77L486.52,637.58L485.47,638.19L485.75,638.56L486.44,639.1L487.15,639.78L487.48,640.57L487.67,642.64L487.52,643.52L486.89,644.24L487.07,644.56L487.19,644.87L486.79,645.01L486.36,645.37L486.06,645.5L485.65,645.54L484.79,645.47L484.36,645.5L481.66,646.56L480.83,647.23L478.92,648.4L478.91,648.41L478.76,648.47L478.24,648.67L477.44,648.76L471.91,650.57L469.72,651.8L469.72,651.8L469.6,651.76L469.34,651.69L468.89,651.9L466.93,651.21L466.48,651.69L466.91,653.12L467.12,653.36L467.05,653.89L466.77,654.7L466.97,655.85L467.18,656.38L467.33,656.48L467.5,656.6L467.5,656.6L467.88,656.54L468.39,656.39L468.84,656.14L469.03,655.82L469.21,655.43L469.63,655.43L470.1,655.58L470.32,655.63L470.44,655.65L470.45,655.65L470.83,655.51L471.6,655.02L473.41,654.52L475.97,654.23L476.69,653.84L478.1,652.81L480.41,651.82L482.64,650.22L483.52,649.8L484.36,649.62L486.25,649.89L487.13,649.9L487.9,649.46L488.67,648.8L491.43,647.38L492.49,648.21L493.39,649.13L494.35,649.54L495.56,648.83L497.6,646.86L497.95,646.63L498.31,646.21L499.88,645.41L500.24,645.03L500.51,644.41L502.22,642.66L502.69,641.85L503.63,639.77zM516.48,633.3L516.74,633.17L517.03,633.02L517.42,632.58L517.58,631.99L517.44,631.41L517.42,631.32L517.03,631L516.55,630.81L516.11,630.52L515.38,630.67L514.62,631.73L514.52,632.9L515.83,633.41L516.48,633.3zM478.84,552.96L477.02,551.69L475.22,549.32L471.51,546.42L464.04,544.29L460.52,544.03L462.91,551.23L462.92,552.56L461.56,553.54L461.78,555.78L474.22,567.85L475.32,570.82L474.83,576.1L472.74,583.75L472.54,585.71L472.74,587.22L476.24,590.09L478.22,593.33L477.97,595.98L477.26,597.12L476.31,597.8L475.06,598.35L472.68,598.21L468.88,599.19L463.23,602.24L461.62,604.8L460.26,608.95L457.87,611.22L452.7,612.81L441.67,611.25L437.89,612.12L435.84,613L433.88,612.31L431.36,611.99L420.32,613L416.04,614.49L414.21,616.73L413.61,620.43L412.73,622.98L412.72,623.49L413.19,624.86L412.07,626.68L407.76,628.97L395.1,626.72L394.03,626.72L391.02,627.49L390.3,627.39L389.6,627.05L386.11,624.19L384.58,623.57L375.35,622.75L372.31,619.86L371.18,617.67L369.39,618.71L368.83,618.91L366.9,618.83L364.86,618.31L364.18,618.27L361.48,618.55L361.03,618.52L360.18,618.88L360,618.87L359.77,619.15L359.1,620.45L361.3,621.43L362.78,622.44L366.11,625.44L368.01,626.01L368.86,626.52L369.22,627.54L369.6,628L372.06,628.62L372.58,629.26L373.02,630L373.57,630.61L374.46,630.87L375.37,630.95L389.44,635.75L390.77,636.58L391.47,637.44L391.8,638.36L391.9,640.57L392.14,641.48L392.73,642.21L396.75,645.25L399.86,647.09L402.02,648.97L402.53,649.14L403.5,648.62L404.51,648.7L406.36,649.3L407.26,649.27L408.95,648.79L410.85,648.53L413.57,647.25L414.42,647.07L414.86,647.09L415.2,647.26L415.99,647.9L416.44,648.04L417.15,648.15L419.99,648.98L420.86,649.08L424.02,648.86L424.81,648.63L425.64,648.5L426.52,648.67L427.75,649.67L428.53,651.08L429.14,652.57L429.89,653.76L431.38,654.49L435.15,654.34L437,654.7L438.21,655.85L438.72,657.19L439.43,658.24L441.24,658.53L444.8,658.21L445.29,658.3L445.99,658.72L446.51,658.81L446.94,658.7L447.25,658.44L447.51,658.14L447.79,657.89L452.29,655.26L456.27,652.02L456.72,651.73L459.43,649.3L460.04,649.01L461.86,648.48L462.67,648.38L463.67,648.14L464.08,647.53L464.3,646.7L464.79,645.82L466.36,645.07L468.26,645.33L471.6,646.48L473.46,646.59L475.19,646.23L476.75,645.44L478.1,644.24L478.68,643.3L479.17,641.99L479.42,640.6L479.25,639.46L478.95,639.76L478.7,639.9L478.1,640.1L480.34,637.6L480.8,637.24L481.32,636.96L482.71,635.66L483.49,635.31L483.91,635.32L485.21,635.63L486.76,635.63L487.12,635.53L487.73,635.09L488.19,635L489.58,635.04L490.02,635L491.73,634.58L493.57,634.36L494.03,634.21L494.78,633.55L495,633.41L495.01,633.22L496.01,632.37L498.79,630.68L499.51,630.07L499.87,629.84L500.19,629.77L500.41,629.61L500.49,629.12L500.63,628.89L501.32,628.21L501.66,627.98L502.75,627.76L505.44,627.65L506.33,627.22L507.28,626.56L508.59,626.22L511.15,626.08L512.43,626.27L514.6,627.13L515.83,627.38L518.41,627.51L519.65,627.77L520.66,628.33L520.94,627.98L521.88,628.28L526.17,628.33L526.57,628.53L526.87,628.98L527.26,629.43L527.88,629.63L529,629.62L529.53,629.44L530.01,628.96L530.27,630.01L530.94,630.98L531.93,631.65L533.15,631.82L533.15,632.17L532.79,632.46L532.06,633.24L531.86,633.41L531.47,633.58L531.46,633.92L531.74,634.16L532.27,634.04L532.25,634.52L532.35,634.9L532.6,635.06L533.41,634.66L533.69,634.84L533.91,635.15L534.12,635.31L534.32,635.41L534.5,635.63L534.74,635.85L535.12,635.94L535.54,635.86L536.82,635.31L536.56,635.69L536.41,636.14L536.47,636.58L536.82,636.9L536.31,637.13L535.89,637.39L535.44,637.57L534.84,637.53L535.26,637.98L536.53,638.83L536.48,639.57L536.98,640.31L538.39,641.53L538.95,642.36L541.65,653.12L541.79,655.28L541.08,661.05L541.09,661.48L541.25,662.53L541.36,662.94L541.56,663.29L542.35,664.06L542.81,664.89L543.1,665.93L543.34,668.02L543.65,668.3L543.43,669.53L546.17,672.56L546.73,674.03L546.28,674.95L544.99,676.36L544.73,677.32L544.82,677.87L545.23,678.76L545.39,679.53L545.95,681.19L546.06,681.73L546.14,681.92L546.31,681.97L546.83,681.88L547.01,681.92L547.94,683.03L548,683.21L548.42,683.58L548.76,684.46L549.28,686.32L550.28,688.65L550.52,690.9L550.81,691.62L551.42,691.95L556.96,692.32L556.65,692.6L559.47,693.49L560.5,693.57L560.92,693.52L561.75,693.3L562.22,693.26L562.7,693.35L563.56,693.79L564.07,693.88L566.36,693.35L567.29,693.26L568.33,693.29L569.19,693.52L569.84,694.09L570.26,695.14L570.33,695.5L570.3,695.66L570.19,695.89L570.03,696.42L569.86,698.44L570.51,698.45L571.42,697.88L572.83,696.73L574.51,695.87L576.21,695.43L577.78,695.8L579.07,697.36L580.31,699.99L581.22,701.23L582.33,701.75L583.7,701.96L585.01,702.38L586.36,702.64L587.88,702.4L589.34,701.39L589.58,701.28L589.73,701.6L590.1,701.65L590.52,701.51L590.85,701.28L591.33,700.82L591.54,700.82L591.68,701L591.96,701.12L592.59,700.96L593.54,700.16L594.1,699.87L595.43,699.6L596.64,699.53L596.35,700.26L597.12,700.63L599.34,700.78L601.92,700.37L609.43,701.75L612.98,701.75L613.45,701.9L613.68,702.26L613.82,702.72L614.08,703.16L614.46,703.34L615.91,703.31L617.52,704.05L618.54,705.28L620.45,708.35L620.99,708.8L621.69,709.1L622.51,709.27L623.46,709.32L623.84,709.21L624.22,709.04L624.58,708.95L624.88,709.14L625.19,709.44L625.54,709.51L626.41,709.32L628.77,708.2L631.08,707.84L631.08,707.84L630.9,706.75L631.99,706.28L632.01,705.59L632.12,704.85L631.35,704.47L631.01,704.01L629.55,701.51L628.86,700.83L628.29,700.1L628.02,699.16L627.34,698.32L626.09,697.84L625.18,696.91L624.96,695.25L623.62,693.06L615.78,686.11L614.31,685.18L613.74,684.94L613.58,684.1L613.78,682.63L614.53,681.49L615.02,681.22L613.33,678.67L612.73,678.17L611.61,678.18L610,677.55L608.79,677.85L607.57,679.14L605.8,679.36L603.74,679.29L602.04,678.9L601.34,677.66L601.22,676.22L600.8,675.2L600.7,674.3L601.09,673.46L601.15,672.96L600.38,672.46L597.79,672.06L596.21,671.34L594.75,671L593.32,671.68L591.08,671.89L587.69,671.28L582.2,671.67L582.13,670.73L582.97,669.69L583.46,667.11L583.46,665.78L583.22,664.44L584.18,655.42L584.76,653.99L585.51,653.06L585.74,652.29L585.69,651.11L584.69,648.14L584.73,647.22L585.62,647.26L588.22,648.85L588.57,647.96L587.38,645.39L584.95,642.57L581.86,639.97L579.01,638.26L576.28,638.19L574.59,639.34L573.59,640.72L571.65,642.55L570.4,642.17L567.59,640.1L554.81,633.31L553.97,630.61L552.67,613.19L551.41,609.53L550.29,607.24L549.18,606.67L548.24,605.31L548.97,603.87L550.11,602.91L549.84,600.56L547.97,597.71L546.08,595.65L545.11,593.79L543.46,591.64L541.31,590.47L540.04,590.3L539.22,589.61L538.62,588.62L537.11,581.33L537.48,576.52L537.15,575.77L532.83,573.65L530.58,573.56L528.68,575.07L527.41,576.62L522.94,580.88L518.07,583.29L515.42,583.76L510.49,583.01L506.24,580.43L502.69,577.16L498.99,572.38L498.13,567.78L499.15,564.3L498.36,546.33L497.19,544.6L495.96,544.76L491.09,547.04L482.81,553.33L480.69,553.88L478.84,552.96z"/>
		<path id="IR-05" title="Ilam" class="land" d="M140.07,297L139.38,296.79L137.98,296.67L131.33,298.21L131.33,299.73L132.47,301.44L133.08,302.69L132.51,305.92L131.64,307.62L125.16,307.32L118.11,309.12L113.28,308.73L102.89,305.37L99.85,302.72L97.07,301.01L93.73,300.25L90.39,300.01L84.19,297.46L77.77,298.27L75.34,298.2L74.57,299.09L75.15,301L74.7,304.2L73.12,309.17L72.25,316.38L71.31,317.17L71.45,317.53L71.44,319.3L71.72,319.65L72.44,319.47L73.12,319.01L74.32,317.85L75.08,317.53L77.09,317.5L77.98,317.27L77.82,318.8L78.55,319.55L79.43,320.15L79.72,321.25L79.21,322L77.25,323.2L76.6,324.05L77.31,324.66L78.54,324.95L79.79,324.79L80.56,324.06L80.76,323.94L80.97,323.9L81.18,323.94L81.23,323.97L81.39,324.06L81.52,324.13L81.64,324.23L83.03,325.97L83.51,326.83L83.84,327.77L83.97,328.77L83.99,329.6L84.2,330.32L85.59,331.66L87.24,334L88.55,335.07L89.13,335.66L89.5,336.49L89.51,337L89.26,337.95L89.23,338.36L89.41,338.82L89.89,339.12L89.92,339.57L89.62,340.2L89.05,340.9L87.94,342.01L87.06,342.67L86.39,342.8L85.7,342.75L84.79,342.83L83.96,343.3L83.92,343.9L84.49,344.4L86.31,344.61L87.09,344.94L87.69,345.47L87.92,346.15L87.65,346.99L87.03,347.63L86.35,348.18L85.84,348.79L85.84,348.8L86.72,350.77L89.14,351.06L94.02,350.52L98.41,351.88L102.54,353.85L103.7,355.02L107.56,357.26L107.72,357.36L109.62,358.9L112.33,360.54L114.04,362.5L126.5,373.39L126.51,373.39L126.51,373.39L127.84,374.37L129.1,375.03L130.4,375.32L131.86,375.16L132.59,374.88L134.48,373.83L135.07,373.87L137.41,374.68L138.3,375.15L138.82,375.76L139.29,376.52L139.98,377.41L141.09,378.25L141.32,378.61L141.38,379.18L141.23,379.5L141,379.77L140.64,380.68L140.47,380.87L140.47,381.11L140.74,381.77L140.93,382.05L142.17,383.23L142.36,383.5L142.52,383.77L143.25,384.79L143.51,385.07L143.92,385.27L144.14,385.89L144.94,386.51L145.16,387.14L145.1,387.82L144.88,388.3L144.63,388.73L144.47,389.26L144.38,389.94L144.42,390.33L144.7,390.55L145.35,390.73L145.88,391.07L146.22,391.57L146.58,391.99L147.21,392.07L148.01,392.4L148.1,392.53L149.21,392.09L153.53,389.25L155.01,386.83L154.52,383.7L154.45,381.21L157.48,377.02L161.28,368.14L160.77,367.66L159.96,366.47L153.3,352.42L148.43,346L147.07,344.5L146.46,344.19L145.68,343.96L145.14,343.36L144.33,341.8L143.34,340.64L142.89,340.43L142.27,340.4L141.74,340.23L141.51,339.61L141.07,339.09L135.98,336.54L134.22,336.1L133.16,335.46L132.41,334.69L132.41,334.04L131.68,333.7L129.63,332.13L129.44,331.89L129.2,331.71L128.88,331.64L128.61,331.69L128.4,331.92L128.17,331.98L127.88,331.87L127.74,331.64L127.68,331.4L127.61,331.27L126.05,330.77L125.3,330.43L124.76,329.95L124.22,329.29L124.1,328.87L124.58,328L124.64,327.5L124.48,327.08L124.05,326.9L121.79,325.52L120.92,325.2L119.84,323.82L118.54,323.14L117.61,321.48L116.96,321.11L116.91,320.73L117.55,318.8L117.67,318.06L118.38,317.75L119.1,317.67L120.01,315.41L122.58,312.97L137.07,308.88L137.89,307.72L140.2,306.17L141.18,305.12L141.74,304L141.95,302.42L141.58,299.97L140.64,297.78L140.07,297z"/>
		<path id="IR-20" title="Lorestan" class="land" d="M152.81,281.4L149.96,281.01L148.76,281.33L147.96,281.86L147.84,282.98L148.22,285.69L147.98,288.49L145.97,289.53L143.01,289.68L140.63,290.86L140.38,291.57L140.48,292.06L140.73,292.39L141.01,292.69L141.22,293.09L141.3,293.67L141.18,294.6L141.22,295.14L141.38,295.52L140.79,296.49L140.07,297L140.64,297.78L141.58,299.97L141.95,302.42L141.74,304L141.18,305.12L140.2,306.17L137.89,307.72L137.07,308.88L122.58,312.97L120.01,315.41L119.1,317.67L118.38,317.75L117.67,318.06L117.55,318.8L116.91,320.73L116.96,321.11L117.61,321.48L118.54,323.14L119.84,323.82L120.92,325.2L121.79,325.52L124.05,326.9L124.48,327.08L124.64,327.5L124.58,328L124.1,328.87L124.22,329.29L124.76,329.95L125.3,330.43L126.05,330.77L127.61,331.27L127.68,331.4L127.74,331.64L127.88,331.87L128.17,331.98L128.4,331.92L128.61,331.69L128.88,331.64L129.2,331.71L129.44,331.89L129.63,332.13L131.68,333.7L132.41,334.04L132.41,334.69L133.16,335.46L134.22,336.1L135.98,336.54L141.07,339.09L141.51,339.61L141.74,340.23L142.27,340.4L142.89,340.43L143.34,340.64L144.33,341.8L145.14,343.36L145.68,343.96L146.46,344.19L147.07,344.5L148.43,346L153.3,352.42L159.96,366.47L160.77,367.66L161.28,368.14L163.54,364.82L169.2,349.93L171.44,348.22L181.65,347.54L184.55,346.64L188.95,346.31L193.25,347.59L195.37,349.66L197.95,350.45L207.12,351.38L216.76,358.03L222.57,358.58L225.61,357.94L225.58,357.46L225.84,356.28L226.39,355.28L227.34,354.67L230.64,353.57L232.53,352.14L233.28,346.29L235.66,343.49L241.81,341.75L242.8,341.16L242.89,340.24L243.12,339.08L247.3,330.65L247.2,328.52L247.37,325.82L248.3,323.84L247.94,323.44L245.29,322.01L245,320.6L245.06,319.14L244.17,318.22L242.83,317.18L242.18,316L241.25,315.44L239.8,316.48L238.99,318.09L238.72,319.38L237.75,320.03L236.47,319.02L235.05,317.52L231.94,315.95L230.59,314.79L230.19,313.63L230.64,312.15L231.3,310.73L231.26,309.4L230.13,307.47L228.31,305.27L226.04,304.54L223.96,305.73L221.68,306.51L219.84,307.56L218.43,311.91L217.65,312.73L214.34,314.83L213.2,314.41L208.53,314L205.79,313L203.69,311.77L203.15,310.73L203.36,309.53L203.71,308.43L205.36,304.6L205.22,303.46L204.7,302.11L205,300.49L205.65,299.43L194.36,294.6L191.64,294.9L189.44,294.77L188.36,295.07L186.19,297.31L184.96,297.64L183.43,297.06L174.24,295.95L156.47,284.25L155.62,283.01L153.84,281.86L152.81,281.4z"/>
		<path id="IR-10" title="Khuzestan" class="land" d="M222.57,358.58L216.76,358.03L207.12,351.38L197.95,350.45L195.37,349.66L193.25,347.59L188.95,346.31L184.55,346.64L181.65,347.54L171.44,348.22L169.2,349.93L163.54,364.82L161.28,368.14L157.48,377.02L154.45,381.21L154.52,383.7L155.01,386.83L153.53,389.25L149.21,392.09L148.1,392.53L148.71,393.41L149.65,395.54L150.29,396.27L151.73,396.98L152.14,397.84L152.14,397.85L152.34,398.71L153.82,401.37L154.1,401.76L154.85,402.26L155.16,402.55L155.39,402.99L155.61,403.84L155.76,404.21L156.42,404.95L158.05,406.19L158.62,407.06L158.74,408.09L158.49,409.19L152.18,426.39L152.08,434.69L151.93,446.38L165.53,446.38L165.98,446.65L166.11,447.27L165.97,470.46L165.97,470.46L166.03,471.93L170.41,472.56L170.87,472.72L171.3,472.99L171.99,473.74L172.52,474.68L172.9,475.73L173.24,477.84L173.42,478.3L173.75,478.65L174.21,478.85L174.7,478.93L175.2,478.91L176.71,478.65L177.23,478.68L177.73,478.85L178.12,479.18L178.96,480.59L180.29,482.1L181.9,483.58L182.17,483.99L182.38,484.47L182.46,484.99L182.36,485.5L182.05,485.91L181.66,486.27L181.33,486.67L181.24,487.2L181.32,487.53L181.84,488.64L182.67,489.58L182.9,490.07L183.01,490.15L183.77,492.53L183.85,493.15L184.22,494.08L184.41,494.4L184.68,494.67L185.26,495.13L185.87,495.5L187.15,495.87L187.45,496L187.49,495.88L187.71,495.59L187.71,495.92L190.75,496.21L191.7,495.92L192.05,495.68L192.43,495.35L192.73,494.93L192.85,494.46L192.74,493.81L192.18,492.9L191.98,492.33L192.09,491.5L192.76,491.66L194.52,492.63L197.42,492.61L198.22,492.98L198.94,492.65L201.75,492.98L202.6,492.75L203.35,492.14L203.9,491.28L204.16,490.34L204.13,489.8L203.9,488.89L203.87,488.38L203.99,487.84L204.36,486.86L204.44,486.26L204.21,484.1L203.94,483.02L203.59,482.17L202.91,481.42L202.07,480.78L201.35,480.05L201.04,479.02L201.19,478.76L201.46,478.38L201.63,478.04L201.16,477.61L201.36,477.01L201.73,476.43L201.89,476.22L204.16,474.1L204.64,473.96L206.87,474.27L207.57,474.28L208.4,473.44L208.07,472.59L207.04,471.93L205.72,471.67L204.6,471.17L204.91,470.19L206.09,469.45L207.57,469.66L208.27,469.27L208.98,469.32L209.72,469.54L210.55,469.66L210.76,469.61L211.15,469.39L211.41,469.34L211.69,469.48L212.15,470.15L212.4,470.32L212.98,470.18L213.4,469.86L213.75,469.78L214.1,470.32L213.94,470.53L213.88,470.69L213.81,471.3L214.46,470.82L215.1,470.12L215.59,469.89L215.92,471.65L216.3,472.39L216.92,472.79L217.77,472.62L217.73,473.44L217.5,473.95L216.28,475.52L215.49,476.91L215.25,477.56L214.71,476.81L214.16,476.31L213.46,476.01L212.54,475.92L211.96,475.72L210.26,474.82L209.42,474.61L208.66,474.73L207.3,475.19L206.42,475.24L204.73,474.95L204.03,475.14L203.59,475.92L204.92,476.27L206.01,476.83L206.73,477.8L207.01,479.34L207.57,479.88L210.31,481.48L211.27,481.82L211.99,481.88L212.43,482.37L212.78,482.98L213.53,483.45L214.24,483.35L214.84,482.78L215.27,481.98L215.51,481.16L216.01,481.49L216.03,481.8L215.86,482.11L215.79,482.47L215.77,483.19L215.79,483.45L215.97,483.73L216.54,484.13L216.66,484.28L216.61,486.26L217,486.67L218.08,486.75L218.93,486.57L220.48,485.91L221.34,485.77L221.69,485.87L222.28,486.32L222.74,486.42L223.24,486.37L224.14,486.14L224.58,486.09L225.47,486.16L225.86,486.25L226.27,486.42L226.71,486.69L226.87,486.89L226.97,487.15L227.27,487.58L227.6,488.41L227.61,490.57L227.71,491.35L228.88,493.06L230.21,493.35L231.71,492.71L244.7,484.4L246.21,483.87L247.75,483.63L249.23,483.81L250.33,484.23L252.99,482.91L257.25,482.19L259.64,483.35L266.02,483.69L265.31,476.15L264.54,472.97L263.22,471.47L262.93,468.97L265.32,463.34L264.61,460.8L262.27,459.1L258.33,456.99L255.1,453.78L253.42,451.63L246.37,452.57L246.09,451.39L246.5,449.81L246.69,448.37L246.9,447.64L246.77,445.69L244.89,438.87L244.85,436.03L245.54,434.47L246.58,433.07L247.99,432L251.18,430.65L256.14,426.2L258.89,422.51L260.37,419.65L262.62,416.82L262.74,414.57L261.53,411.87L258.01,408.07L257.21,406.66L255.15,404.78L253.88,402.76L252.64,399.84L251.52,395.76L250.96,394.47L250.28,393.78L248.32,393.15L247.72,392.46L246.69,391.71L245.69,390.4L244.39,387.11L238.15,377.22L237.47,374.25L237.32,372.81L238.42,369.15L239.31,367.78L237.59,365.45L233.45,363.87L229.84,364.11L227.61,362.91L225.61,357.94L222.57,358.58z"/>
		<path id="IR-08" title="Chahar Mahall and Bakhtiari" class="land" d="M302.48,438.2L302.9,436.53L303.01,432.77L299.23,420.23L298.31,414.71L298.55,412.1L299.96,411.09L301.71,410.33L301.62,408.84L300.37,407.25L299.55,405.76L299.73,404.25L301.38,403.11L302.69,400.53L301.93,395.45L299.77,391.51L294.96,387.88L292.78,385.67L287.52,381.58L287.11,377.74L287.35,374.18L286.44,372.76L286.09,371.33L285.46,370.62L284.37,370.34L283.96,369.14L283.56,366.91L281.94,365.5L280.15,365.81L279.24,366.81L277.53,367.39L272.09,367.56L270.47,367.85L265.85,370.86L263.97,371.27L262.7,370.84L260.67,371.29L257.97,370.96L255.45,368.86L252.91,367.47L251.07,367.86L249.78,368.51L248.29,368.77L245.47,368.4L237.32,372.81L237.47,374.25L238.15,377.22L244.39,387.11L245.69,390.4L246.69,391.71L247.72,392.46L248.32,393.15L250.28,393.78L250.96,394.47L251.52,395.76L252.64,399.84L253.88,402.76L255.15,404.78L257.21,406.66L258.01,408.07L261.53,411.87L262.74,414.57L262.62,416.82L260.37,419.65L258.89,422.51L261.82,424.31L269.08,427.23L271.26,427.11L272.53,427.27L287.93,440.98L289.34,440.96L294.09,441.59L296.33,440.42L298.38,438.61L301.07,438.1L302.48,438.2z"/>
		<path id="IR-25" title="Yazd" class="land" d="M550.52,318.62L542.3,317.64L540.36,314.57L537.78,300.21L538.12,291.77L543.33,276.05L546.15,270.96L562.55,259.33L566.56,255.39L567.12,252.16L565.7,248.98L553.63,239.7L549.03,238.49L538.61,241.17L522.16,248.99L505.25,253.41L490.37,278.51L485.82,280.86L475.21,280.62L471.41,281.33L470.68,281.66L470.68,281.79L471.15,315.55L470.05,319.07L466.52,325.23L464.14,326.89L460.92,327.23L456.81,329.44L454.59,332.2L452.71,340.48L451.36,344.16L449.77,347.17L447.48,349.96L443.11,352.46L399.32,367.58L386.21,364.57L383.19,364.67L379.2,366.23L376.71,367.82L374.88,369.35L372.2,370.88L369.22,371.76L367.58,372.86L367.26,374.49L368.45,389.55L368.08,392.68L366.34,399.55L365.55,405.45L365.11,406.66L365.23,410.04L367.04,417.19L377.57,421.24L383.83,427.01L389.14,433.48L398.81,457.93L405.68,470.24L412.28,478.36L414.08,481.56L415.56,492.04L416.74,494.9L423.17,499.75L431.57,504.02L433.4,503.21L433.81,502.86L437.99,502.35L439.29,501.41L439.25,500.06L438.68,498.16L438.24,495.44L438.76,479.92L437.42,479L436.09,477.37L435.11,472.58L432.66,466.14L430.35,461.76L430.24,459.38L431.16,455.87L433.07,452.23L436.71,448.16L459.97,444.03L465.27,444.23L468.66,444.93L476.47,443.86L483.48,440.76L484.1,437.4L484.63,422.15L486.47,418.22L508.45,406.6L511.37,403.48L519.98,398.61L521.88,396.55L522.78,395.18L528.06,396.12L572.47,415.25L573.05,414.3L575.22,408.72L579.47,402.11L580.99,397.85L586.5,390.45L587.18,388.17L587.56,385.77L588.5,383.04L588.59,380.35L586.93,377.6L585.67,374.86L585.6,373.37L584.39,371.99L583.76,370.86L583.46,369.77L584.16,368.01L585.28,366.19L585.62,364.68L585.42,360.9L584.33,360.13L580.99,354.87L577.47,352.67L574.79,351.47L573.8,350.69L570.29,348.67L567.59,342.51L564.5,321.59L562.86,318.42L561.09,316.16L550.52,318.62z"/>
		<path id="IR-07" title="Tehran" class="land" d="M335.48,209.73L332.21,209.54L330.18,208.81L328.94,208.07L327.46,206.36L325.07,201.85L320.84,197.28L315.21,195.07L308.86,194.53L304.39,191.89L304.25,194.05L304.25,196.94L301.91,198.39L298.58,197.97L295.24,199.21L292.73,202.1L292.57,205.4L292.06,207.87L288.39,208.07L287.22,211.16L285.05,213.83L282.38,215.48L281.29,218L283.21,220.4L284.27,222.47L284.29,226.02L280.71,237.62L280.72,237.75L292.61,237.88L302.55,240.89L326.13,254.96L326.3,252.79L327.56,248.74L329.68,245.45L330.2,242.34L328.33,238.93L323.66,232.71L323.34,230.55L323.6,228.24L324.38,225.19L324.94,220.51L325.63,219.78L326.4,220.13L326.9,220.64L327.79,220.95L330.26,221.08L332.55,223.08L340.09,227.69L343.12,228.74L346.27,228.81L355.59,231.52L358.94,231.65L363.65,230.1L367.76,227.9L374.34,221.89L375.67,217.32L375.13,212.19L373.82,206.47L370.1,203.89L368.31,203.48L366.98,204.28L364.79,204.57L361.64,203.92L356.9,201.35L353.18,200.66L350.24,199.41L347.49,199.06L343.7,202.06L338.33,208.57L335.48,209.73z"/>
		<path id="IR-12" title="Semnan" class="land" d="M500.25,138.38L497.31,136.3L491.05,127.95L489.34,129.36L481.64,141.25L478.22,148.87L477.4,154.53L476.03,158.11L473.93,159.09L459.14,157.06L455.62,157.48L448.38,161.64L441.36,167.15L438.81,169.93L432.96,172.69L430.08,173.34L426.85,172.82L418.74,172.96L414.57,174.21L411.13,176.24L408.02,179.36L406.56,182.22L405.64,185.32L404.98,189.45L403.35,191.34L399.11,195.13L398.15,196.53L397.64,197.82L396.66,199.19L394.87,200.79L391.94,202.37L388.77,203.4L386.7,203.69L385.36,202.94L383.21,203.67L380.59,205.19L378.62,205.74L374.43,206.2L373.82,206.47L375.13,212.19L375.67,217.32L374.34,221.89L367.76,227.9L363.65,230.1L358.94,231.65L355.59,231.52L346.27,228.81L343.12,228.74L340.09,227.69L332.55,223.08L330.26,221.08L327.79,220.95L326.9,220.64L326.4,220.13L325.63,219.78L324.94,220.51L324.38,225.19L323.6,228.24L323.34,230.55L323.66,232.71L328.33,238.93L330.2,242.34L329.68,245.45L327.56,248.74L326.3,252.79L326.13,254.96L326.69,256.97L326.58,261.08L325.46,265.49L323.64,269.77L322.27,271.75L330.27,276.09L334.32,276.76L345.66,276.04L348.48,276.48L366.1,282.3L368.25,282.64L467.02,279.67L469.29,280.42L470.3,281.29L470.68,281.79L470.68,281.66L471.41,281.33L475.21,280.62L485.82,280.86L490.37,278.51L505.25,253.41L511.9,245.17L517.24,240.28L521.94,237.48L530.68,234.18L531.94,233.19L533.7,229.1L540.9,216.7L541.53,213.14L538.82,210.02L529.01,201.98L527.88,199.12L526.54,192.93L525.76,183.31L526.37,177.72L528.04,174.52L529.16,169.71L528.14,165.66L526.46,164.65L525.14,164.6L524.33,164.83L518.03,165.9L515.97,165.11L512.03,164.43L509.69,163.66L505,159.61L500.1,154.09L499.32,152.46L499.47,151.42L500.25,148.32L500.46,144.81L500.26,143.44L499.99,142.88L499.72,142.47L499.98,141.71L501.05,140.85L503.46,140.13L503.9,138.94L501.88,138.09L500.25,138.38z"/>
		<path id="IR-21" title="Mazandaran" class="land" d="M401.58,155.86L401.4,155.85L399.71,155.09L398.71,153.76L399.03,153.72L399.86,153.44L398.5,153.5L397.92,153.31L397.6,152.73L399.72,152.73L402.14,153.05L402.78,152.92L403.92,152.47L404.55,152.38L405.65,152.72L406.25,152.82L406.77,152.55L408.66,151.97L411.6,151.6L413.95,150.78L414.04,148.81L412.02,150.52L409.05,151.23L392.76,152.16L390.91,152.47L377.18,155.56L370.34,157.67L363.25,159.79L356.19,161.23L348.82,162.64L341.7,164.4L334.9,166.9L327.24,167.92L319.87,165.78L312.22,164.4L304.84,162.25L293.29,159.96L289.82,158.38L283.86,154.14L277.33,150.58L276.72,150.05L275.5,148.72L274.92,148.46L274.06,148.26L272.09,146.92L272.08,146.92L272.06,147.09L271.66,148.41L270.25,150.37L268.09,151.52L266.43,153.18L265.52,157.46L262.99,162.01L260.84,163.4L271.87,172.72L274.16,173.96L280.86,179.08L281.34,180.48L281.38,181.5L288.22,182.86L290.86,183.91L291.61,185L293.18,186.45L294.92,187.21L301.7,188.72L304.39,191.89L308.86,194.53L315.21,195.07L320.84,197.28L325.07,201.85L327.46,206.36L328.94,208.07L330.18,208.81L332.21,209.54L335.48,209.73L338.33,208.57L343.7,202.06L347.49,199.06L350.24,199.41L353.18,200.66L356.9,201.35L361.64,203.92L364.79,204.57L366.98,204.28L368.31,203.48L370.1,203.89L373.82,206.47L374.43,206.2L378.62,205.74L380.59,205.19L383.21,203.67L385.36,202.94L386.7,203.69L388.77,203.4L391.94,202.37L394.87,200.79L396.66,199.19L397.64,197.82L398.15,196.53L399.11,195.13L403.35,191.34L404.98,189.45L405.64,185.32L406.56,182.22L408.02,179.36L411.13,176.24L414.57,174.21L418.74,172.96L417.06,170.39L412.68,165.86L403.54,160.32L402.1,157.82L401.63,156.54L401.58,155.87L401.58,155.86z"/>
		<path id="IR-27" title="Golestan" class="land" d="M495.64,90.73L495.01,90.7L494.43,90.51L493.3,89.91L492.61,89.69L490.5,89.67L489.89,89.47L488.28,88.53L485.71,87.96L484.48,87.96L476.3,89.68L473.67,89.79L472.66,90.2L469.59,92.59L468.73,93.03L467.88,93.73L467.41,93.79L465.52,94.43L464.62,94.94L464.25,95.77L463.74,95.97L461.35,96.42L460.55,96.7L460.19,97.09L459.74,98.05L459.44,98.45L458.99,98.62L458.41,98.72L457.91,99L457.69,99.71L457.37,100.26L455.44,102.42L449.22,106.72L447.98,108.07L447.44,108.94L447.21,109.77L447.03,110.81L446.35,112.43L446.39,113.53L446.54,113.82L447.03,114.26L447.21,114.6L447.27,114.97L447.21,116.22L447.09,116.97L446.52,118.28L446.39,119.08L446.2,119.45L445.15,120.33L443.19,121.63L442.67,122.12L441.85,122.45L440.83,123.55L440.21,123.84L439.3,123.85L436.78,123.3L435.84,123.45L428.84,127.52L427.36,128.01L426.45,128.01L425.5,127.88L424.59,127.93L423.83,128.44L423.06,129.18L422.31,129.5L421.49,129.54L410.2,128.55L410.59,132.96L410.78,133.7L412.03,137.09L412.96,141.48L413.62,143.38L414.6,144.92L413.66,146.68L413.54,147.44L414.32,147.75L414.93,148.11L415.16,148.99L415.14,154.34L414.86,155.2L414.36,155.61L409.18,157.04L408.48,156.79L407.83,156.42L401.58,155.86L401.58,155.87L401.63,156.54L402.1,157.82L403.54,160.32L412.68,165.86L417.06,170.39L418.74,172.96L426.85,172.82L430.08,173.34L432.96,172.69L438.81,169.93L441.36,167.15L448.38,161.64L455.62,157.48L459.14,157.06L473.93,159.09L476.03,158.11L477.4,154.53L478.22,148.87L481.64,141.25L489.34,129.36L491.05,127.95L492.3,126.73L495.33,121.36L498.34,120.11L499.6,118.95L500.85,118.38L501.95,118.21L506.8,116.53L509.08,113.36L508.31,110.17L506.62,108.87L504.67,107.9L503.26,106.23L503.17,103.85L504.01,100.47L504.05,99.23L503.56,97.02L503.45,95.12L503.72,93.63L503.44,89.95L503.24,89.86L501.56,89.65L495.64,90.73z"/>
		<path id="IR-14" title="Fars" class="land" d="M349.77,421.29L340.55,419.25L338.62,417.51L338.23,413.02L337.6,411.7L336.89,411.59L331.25,414.69L330.45,415.78L329.27,416.31L323.69,420.09L320.59,420.53L316.57,419.57L316.42,421.01L317.39,423.29L318.66,424.59L320.29,425.21L322.11,425.56L324.49,427.38L325.69,430.64L324.69,433.95L323.85,438.89L320.34,447.63L320.02,451.84L320.44,454.7L320.46,456.25L319.3,456.63L316.15,457.11L317.38,463.12L317.4,465.41L317.17,465.89L316.11,466.95L314.08,468.15L311.78,468.78L307.39,467.64L305.85,466.7L304.93,465.52L303.87,465.3L299.13,462.98L295.76,462.14L295.14,462.86L295.83,466.91L297.12,470.57L297.21,471.66L296.64,472.69L296.94,473.74L297.96,475.43L297.91,477.92L297.03,479.76L285.99,486.23L284.23,486.5L277.29,486.09L273.12,487.11L273.13,487.23L273.13,489.68L274.24,493.14L276.32,495.22L278.84,500.37L281.2,501.27L290.35,501.96L296.03,503.79L298.8,506.89L301.02,512L303.94,516.63L306.61,519.43L309.91,520.66L313.57,524.03L332.15,559.06L333.11,563.31L339.17,580.48L340.21,582.18L342.04,582.91L343.42,583.73L346.54,587.38L352.15,599.96L357.61,606.7L362.91,611.71L371.18,617.67L372.31,619.86L375.35,622.75L384.58,623.57L386.11,624.19L389.6,627.05L390.3,627.39L391.02,627.49L394.03,626.72L395.1,626.72L407.76,628.97L412.07,626.68L413.19,624.86L412.72,623.49L412.73,622.98L413.61,620.43L414.21,616.73L416.04,614.49L420.32,613L431.36,611.99L433.88,612.31L435.84,613L437.89,612.12L441.67,611.25L452.7,612.81L457.87,611.22L460.26,608.95L461.62,604.8L463.23,602.24L468.88,599.19L472.68,598.21L475.06,598.35L476.31,597.8L477.26,597.12L477.97,595.98L478.22,593.33L476.24,590.09L472.74,587.22L472.54,585.71L472.74,583.75L474.83,576.1L475.32,570.82L474.22,567.85L461.78,555.78L461.56,553.54L462.92,552.56L462.91,551.23L460.52,544.03L452.15,523.23L449.75,522.2L440.27,521.33L438.41,520.14L437.43,519.14L436.53,517.54L436.06,515.72L432.69,508.73L431.57,504.96L431.57,504.02L423.17,499.75L416.74,494.9L415.56,492.04L414.08,481.56L412.28,478.36L405.68,470.24L398.81,457.93L389.14,433.48L383.83,427.01L377.57,421.24L367.04,417.19L366.96,417.19L352.84,421.28L349.77,421.29z"/>
		<path id="IR-04" title="Isfahan" class="land" d="M334.32,276.76L330.27,276.09L322.27,271.75L308.31,275.37L305.11,275.21L296.17,276.24L292.23,277.96L290.68,279.52L290.19,280.98L288.95,290.81L289.81,292.97L290.99,293.6L290.49,296.58L286.54,306.16L285.44,308.12L283.07,308.13L280.46,308.96L278.14,310.93L275.55,312.53L258.3,317.08L251.73,320.99L248.3,323.84L247.37,325.82L247.2,328.52L247.3,330.65L243.12,339.08L242.89,340.24L242.8,341.16L241.81,341.75L235.66,343.49L233.28,346.29L232.53,352.14L230.64,353.57L227.34,354.67L226.39,355.28L225.84,356.28L225.58,357.46L225.61,357.94L227.61,362.91L229.84,364.11L233.45,363.87L237.59,365.45L239.31,367.78L238.42,369.15L237.32,372.81L245.47,368.4L248.29,368.77L249.78,368.51L251.07,367.86L252.91,367.47L255.45,368.86L257.97,370.96L260.67,371.29L262.7,370.84L263.97,371.27L265.85,370.86L270.47,367.85L272.09,367.56L277.53,367.39L279.24,366.81L280.15,365.81L281.94,365.5L283.56,366.91L283.96,369.14L284.37,370.34L285.46,370.62L286.09,371.33L286.44,372.76L287.35,374.18L287.11,377.74L287.52,381.58L292.78,385.67L294.96,387.88L299.77,391.51L301.93,395.45L302.69,400.53L301.38,403.11L299.73,404.25L299.55,405.76L300.37,407.25L301.62,408.84L301.71,410.33L299.96,411.09L298.55,412.1L298.31,414.71L299.23,420.23L303.01,432.77L302.9,436.53L302.48,438.2L302.77,441.43L305.07,447.35L309.52,452.11L315.31,456.28L316.15,457.11L319.3,456.63L320.46,456.25L320.44,454.7L320.02,451.84L320.34,447.63L323.85,438.89L324.69,433.95L325.69,430.64L324.49,427.38L322.11,425.56L320.29,425.21L318.66,424.59L317.39,423.29L316.42,421.01L316.57,419.57L320.59,420.53L323.69,420.09L329.27,416.31L330.45,415.78L331.25,414.69L336.89,411.59L337.6,411.7L338.23,413.02L338.62,417.51L340.55,419.25L349.77,421.29L352.84,421.28L366.96,417.19L367.04,417.19L365.23,410.04L365.11,406.66L365.55,405.45L366.34,399.55L368.08,392.68L368.45,389.55L367.26,374.49L367.58,372.86L369.22,371.76L372.2,370.88L374.88,369.35L376.71,367.82L379.2,366.23L383.19,364.67L386.21,364.57L399.32,367.58L443.11,352.46L447.48,349.96L449.77,347.17L451.36,344.16L452.71,340.48L454.59,332.2L456.81,329.44L460.92,327.23L464.14,326.89L466.52,325.23L470.05,319.07L471.15,315.55L470.68,281.79L470.3,281.29L469.29,280.42L467.02,279.67L368.25,282.64L366.1,282.3L348.48,276.48L345.66,276.04L334.32,276.76z"/>
		<path id="IR-06" title="Bushehr" class="land" d="M261.75,531.81L262.02,531.09L261.9,530.27L262.09,529.45L261.64,529.19L260.89,528.85L260.44,528.66L259.96,528.96L260.26,529.52L260.52,530.45L260.93,531.5L261.34,531.87L261.75,531.81zM303.94,516.63L301.02,512L298.8,506.89L296.03,503.79L290.35,501.96L281.2,501.27L278.84,500.37L276.32,495.22L274.24,493.14L273.13,489.68L273.13,487.23L272.41,486.55L270.86,485.43L266.02,483.69L259.64,483.35L257.25,482.19L252.99,482.91L250.33,484.23L250.33,484.23L250.67,484.37L251.27,484.79L251.52,485.29L251.74,486.08L252.29,487.05L252.94,487.92L253.52,488.38L253.28,489.63L254.23,492.34L253.78,493.96L254.34,494.24L254.58,494.58L254.43,494.86L253.78,494.94L253.93,495.44L253.97,496.32L254.09,496.9L254.23,497.11L255.84,498.78L257.55,499.83L258.33,500.51L259.32,501.97L261.2,505.42L262.31,507.02L263.43,508.27L264.03,509.18L264.29,510.13L264.67,510.62L267.11,511.61L268.46,512.97L269.12,513.89L269.4,514.71L269.76,515.32L271.94,517.13L273.11,518.91L273.35,519.43L273.37,518.01L274.01,518.32L274.81,519.42L275.35,520.4L275.68,521.7L275.89,523.58L275.91,525.43L275.61,526.59L276.11,527.5L276.37,527.79L276.77,527.92L276.67,528.25L276.49,530.19L275.86,529.51L275.48,529.86L275.21,530.65L274.92,531.29L274.55,531.86L274.44,532.44L274.51,533.59L274.88,534.91L275.79,535.72L276.94,535.86L278.04,535.21L278.79,535.07L282.02,534.87L283.01,535.04L283.16,535.3L283.25,535.7L283.3,536.5L283.45,536.71L283.79,536.6L284.17,536.4L284.42,536.34L284.93,536.77L285.21,537.26L285.55,538.63L286.32,538.43L286.72,539.12L286.82,540.21L286.68,541.24L286.4,541.74L285.57,542.49L285.27,542.83L285.21,543.36L285.4,543.75L285.45,544.09L285.01,544.47L284.61,543.69L283.93,542.83L283.11,542.14L282.31,541.86L281.45,542.37L281.3,543.54L281.54,544.84L281.88,545.74L283.83,548.21L284.14,549.14L284.49,549.64L285.32,549.86L286.99,549.96L288.74,550.37L290.07,551.2L291.13,552.45L292.06,554.18L292.58,556.22L292.62,562.23L292.96,563.7L295.49,569.97L295.8,570.45L297.17,571.9L298.63,574.17L299.14,574.79L300.58,576.1L301.43,577.49L301.49,578.74L300.58,581.26L300.78,582.2L301.64,583.09L302.35,583.77L303.91,586.32L304.54,588.02L305.36,589.19L306.17,591.99L307.02,591.92L307.34,590.61L308.33,591.25L309.28,592.85L310.16,593.8L311.93,594.34L313.22,594.52L313.44,594.75L313.58,595.1L313.63,595.55L313.84,595.85L314.32,595.97L317.9,596.73L319.53,596.98L322.12,596.5L323.71,596.12L325.19,596.01L325.97,596.5L326.63,596.71L329.5,596.36L331.47,596.63L333.18,597.34L334.7,598.37L339.58,602.92L341.14,603.7L348.51,605.33L350.03,605.98L351.39,607.06L354.49,610.27L354.78,610.75L355.44,612.28L355.77,612.83L356.39,613.35L358.07,614L358.73,614.57L359.1,615.66L358.59,616.12L357.69,616.22L356.92,616.19L356.05,616.27L355.36,616.58L354.97,617.17L355.04,618.13L355.89,619.03L359.09,620.45L359.1,620.45L359.77,619.15L360,618.87L360.18,618.88L361.03,618.52L361.48,618.55L364.18,618.27L364.86,618.31L366.9,618.83L368.83,618.91L369.39,618.71L371.18,617.67L362.91,611.71L357.61,606.7L352.15,599.96L346.54,587.38L343.42,583.73L342.04,582.91L340.21,582.18L339.17,580.48L333.11,563.31L332.15,559.06L313.57,524.03L309.91,520.66L306.61,519.43L303.94,516.63z"/>
		<path id="IR-18" title="Kohgiluyeh and Buyer Ahmad" class="land" d="M269.08,427.23L261.82,424.31L258.89,422.51L256.14,426.2L251.18,430.65L247.99,432L246.58,433.07L245.54,434.47L244.85,436.03L244.89,438.87L246.77,445.69L246.9,447.64L246.69,448.37L246.5,449.81L246.09,451.39L246.37,452.57L253.42,451.63L255.1,453.78L258.33,456.99L262.27,459.1L264.61,460.8L265.32,463.34L262.93,468.97L263.22,471.47L264.54,472.97L265.31,476.15L266.02,483.69L270.86,485.43L272.41,486.55L273.13,487.23L273.12,487.11L277.29,486.09L284.23,486.5L285.99,486.23L297.03,479.76L297.91,477.92L297.96,475.43L296.94,473.74L296.64,472.69L297.21,471.66L297.12,470.57L295.83,466.91L295.14,462.86L295.76,462.14L299.13,462.98L303.87,465.3L304.93,465.52L305.85,466.7L307.39,467.64L311.78,468.78L314.08,468.15L316.11,466.95L317.17,465.89L317.4,465.41L317.38,463.12L316.15,457.11L315.31,456.28L309.52,452.11L305.07,447.35L302.77,441.43L302.48,438.2L301.07,438.1L298.38,438.61L296.33,440.42L294.09,441.59L289.34,440.96L287.93,440.98L272.53,427.27L271.26,427.11L269.08,427.23z"/>
	</g>
</svg>
