<svg xmlns="http://www.w3.org/2000/svg" xmlns:amcharts="http://amcharts.com/ammap" xmlns:xlink="http://www.w3.org/1999/xlink" version="1.1" viewBox="0 0 280 200" xml:space="preserve" width="1200" height="1100px" class="img-responsive" style="margin-top:-15%;margin-left:20%;" fill-hover="#ff5656" id-svg="southamerica">
   <defs> 
    <style type="text/css">.land
      {
        fill: #cacaca;
        fill-opacity: 1;
        stroke:white;
        stroke-opacity: 1;
        stroke-width:0.5;
      }</style>
    <!-- All areas are listed in the line below. You can use this list in your script. --> 
    <!--{id:"AE"},{id:"AF"},{id:"AL"},{id:"AM"},{id:"AO"},{id:"AR"},{id:"AT"},{id:"AU"},{id:"AZ"},{id:"BA"},{id:"BD"},{id:"BE"},{id:"BF"},{id:"BG"},{id:"BI"},{id:"BJ"},{id:"BN"},{id:"BO"},{id:"BR"},{id:"BS"},{id:"BT"},{id:"BW"},{id:"BY"},{id:"BZ"},{id:"CA"},{id:"CD"},{id:"CF"},{id:"CG"},{id:"CH"},{id:"CI"},{id:"CL"},{id:"CM"},{id:"CN"},{id:"CO"},{id:"CR"},{id:"CU"},{id:"CY"},{id:"CZ"},{id:"DE"},{id:"DJ"},{id:"DK"},{id:"DO"},{id:"DZ"},{id:"EC"},{id:"EE"},{id:"EG"},{id:"EH"},{id:"ER"},{id:"ES"},{id:"ET"},{id:"FK"},{id:"FI"},{id:"FJ"},{id:"FR"},{id:"GA"},{id:"GB"},{id:"GE"},{id:"GF"},{id:"GH"},{id:"GL"},{id:"GM"},{id:"GN"},{id:"GQ"},{id:"GR"},{id:"GT"},{id:"GW"},{id:"GY"},{id:"HN"},{id:"HR"},{id:"HT"},{id:"HU"},{id:"ID"},{id:"IE"},{id:"IL"},{id:"IN"},{id:"IQ"},{id:"IR"},{id:"IS"},{id:"IT"},{id:"JM"},{id:"JO"},{id:"JP"},{id:"KE"},{id:"KG"},{id:"KH"},{id:"KP"},{id:"KR"},{id:"XK"},{id:"KW"},{id:"KZ"},{id:"LA"},{id:"LB"},{id:"LK"},{id:"LR"},{id:"LS"},{id:"LT"},{id:"LU"},{id:"LV"},{id:"LY"},{id:"MA"},{id:"MD"},{id:"ME"},{id:"MG"},{id:"MK"},{id:"ML"},{id:"MM"},{id:"MN"},{id:"MR"},{id:"MW"},{id:"MX"},{id:"MY"},{id:"MZ"},{id:"NA"},{id:"NC"},{id:"NE"},{id:"NG"},{id:"NI"},{id:"NL"},{id:"NO"},{id:"NP"},{id:"NZ"},{id:"OM"},{id:"PA"},{id:"PE"},{id:"PG"},{id:"PH"},{id:"PL"},{id:"PK"},{id:"PR"},{id:"PS"},{id:"PT"},{id:"PY"},{id:"QA"},{id:"RO"},{id:"RS"},{id:"RU"},{id:"RW"},{id:"SA"},{id:"SB"},{id:"SD"},{id:"SE"},{id:"SI"},{id:"SJ"},{id:"SK"},{id:"SL"},{id:"SN"},{id:"SO"},{id:"SR"},{id:"SS"},{id:"SV"},{id:"SY"},{id:"SZ"},{id:"TD"},{id:"TF"},{id:"TG"},{id:"TH"},{id:"TJ"},{id:"TL"},{id:"TM"},{id:"TN"},{id:"TR"},{id:"TT"},{id:"TW"},{id:"TZ"},{id:"UA"},{id:"UG"},{id:"US"},{id:"UY"},{id:"UZ"},{id:"VE"},{id:"VN"},{id:"VU"},{id:"YE"},{id:"ZA"},{id:"ZM"},{id:"ZW"}--> 
   </defs> 
   <g> 
    <title>background</title> 
   </g> 
   <g> 
    <title>Layer 1</title> 
    <g id="svg_1"> 
     <path d="m49.600006,224.909973l-2.660004,0.25l-1.429993,-1.72998l-1.690002,-0.130005l-3,0l0,-10.570007l1.079987,2.149963l1.400024,3.530029l3.649994,2.869995l3.929993,1.210022l-1.279999,2.419983zm1.5,-122.440002l1.649994,2.179993l1.089996,-2.429993l3.200012,0.119995l0.450012,0.640015l5.149994,4.940002l2.289978,0.459961l3.430023,2.26001l2.889984,1.200012l0.399994,1.359985l-2.759979,4.730042l2.829987,0.849976l3.149994,0.47998l2.220001,-0.5l2.540009,-2.399963l0.459991,-2.73999l1.390015,-0.590027l1.410004,1.789978l-0.059998,2.490051l-2.360016,1.72998l-1.880005,1.279968l-3.160004,3.080017l-3.73999,4.369995l-0.699982,2.590027l-0.75,3.369995l0.029999,3.299988l-0.610016,0.73999l-0.220001,2.169983l-0.190002,1.76001l3.559998,2.910034l-0.380005,2.369995l1.75,1.51001l-0.139984,1.699951l-2.690002,4.52002l-4.160004,1.910034l-5.619995,0.75l-3.079987,-0.360046l0.589996,2.150024l-0.570007,2.719971l0.519989,1.850037l-1.679993,1.299988l-2.869995,0.51001l-2.700012,-1.350037l-1.079987,0.970032l0.389984,3.710022l1.890015,1.139954l1.540009,-1.190002l0.839996,1.960022l-2.580017,1.179993l-2.25,2.380005l-0.410004,3.910034l-0.659973,2.109985l-2.650024,0.01001l-2.199982,2.039978l-0.800018,3.01001l2.76001,2.97998l2.679993,0.830017l-0.959991,3.72998l-3.309998,2.380005l-1.820007,5.030029l-2.559998,1.719971l-1.149994,2.059998l0.910004,4.640015l1.869995,2.630005l-1.179993,-0.230042l-2.600006,-0.709961l-6.779999,-0.609985l-1.160004,-2.630005l0.049988,-3.330017l-1.869995,0.279968l-0.98999,-1.599976l-0.25,-4.599976l2.149994,-1.880005l0.890015,-2.679993l-0.330017,-2.110046l1.48999,-3.519958l1.02002,-5.350037l-0.300018,-2.329956l1.220001,-0.75l-0.299988,-1.480042l-1.299988,-0.779968l0.919983,-1.630005l-1.269989,-1.460022l-0.649994,-4.399963l1.129974,-0.77002l-0.470001,-4.539978l0.660004,-3.75l0.75,-3.220032l1.680023,-1.299988l-0.850006,-3.460022l-0.01001,-3.219971l2.119995,-2.26001l-0.059998,-2.869995l1.600006,-3.309998l0.01001,-3.090027l-0.730011,-0.609985l-1.290009,-5.690002l1.730011,-3.340027l-0.269989,-3.109985l1,-2.899963l1.839996,-2.960022l1.97998,-1.950012l-0.839996,-1.22998l0.589996,-1l-0.089996,-5.140015l3.050018,-1.51001l0.959991,-3.159973l-0.339996,-0.76001l2.339996,-2.719971l3.619995,0.719971z" class="land" id="AR" title="Argentina" /> 
     <path d="m57.040009,102.349976l-3.200012,-0.130005l-1.089996,2.430054l-1.649994,-2.180054l-3.670013,-0.72998l-2.329987,2.720032l-2.029999,0.409973l-1.100006,-4.150024l-1.5,-3.339966l0.880005,-2.869995l-1.470001,-1.25l-0.369995,-2.119995l-1.380005,-2l1.769989,-3.140015l-1.209991,-2.440002l0.649994,-0.970001l-0.51001,-1.070007l1.100006,-1.440002l0.059998,-2.439972l0.130005,-2.02002l0.610016,-0.959991l-2.430023,-4.580017l2.090027,0.240021l1.439972,-0.070007l0.630005,-0.850006l2.450012,-1.149994l1.470001,-1.059998l3.669983,-0.480011l-0.289978,2.119995l0.339996,1.090027l-0.230011,1.899994l3.050018,2.549988l3.139984,0.470001l1.100006,1.070007l1.899994,0.570007l1.160004,0.829987l1.76001,-0.029999l1.629974,0.850006l0.120026,1.660004l0.549988,0.839996l0.040009,1.25l-0.820007,0.040009l1.079987,3.369995l5.370026,0.119995l-0.410004,1.679993l0.299988,1.149994l1.529999,0.820007l0.670013,1.820007l-0.5,2.320007l-0.77002,1.289978l0.27002,1.690002l-0.880005,0.609985l-0.040009,-0.909973l-2.619995,-1.51001l-2.600006,-0.049988l-4.889984,0.859985l-1.339996,2.619995l-0.070007,1.600037l-1.110016,3.589966l-0.449982,-0.640015z" class="land" id="BO" title="Bolivia" /> 
     <path d="m71.679993,127.789978l3.740021,-4.369995l3.169983,-3.079956l1.880005,-1.280029l2.359985,-1.72998l0.060028,-2.48999l-1.410004,-1.790039l-1.390015,0.590027l0.550018,-1.780029l0.379974,-1.820007l0,-1.679993l-1.009979,-0.549988l-1.050018,0.48999l-1.039978,-0.130005l-0.330017,-1.179993l-0.26001,-2.77002l-0.529999,-0.899963l-1.889984,-0.820007l-1.140015,0.590027l-2.959991,-0.580017l0.179993,-4.059998l-0.829987,-1.660034l0.880005,-0.609985l-0.27002,-1.690002l0.77002,-1.289978l0.5,-2.320007l-0.670013,-1.820007l-1.529999,-0.820007l-0.299988,-1.149994l0.410004,-1.679993l-5.370026,-0.119995l-1.079987,-3.369995l0.820007,-0.040009l-0.040009,-1.25l-0.549988,-0.839996l-0.120026,-1.660004l-1.629974,-0.850006l-1.76001,0.029999l-1.160004,-0.829987l-1.899994,-0.570007l-1.100006,-1.070007l-3.139984,-0.470001l-3.050018,-2.549988l0.230011,-1.899994l-0.339996,-1.090027l0.289978,-2.119995l-3.669983,0.480011l-1.470001,1.059998l-2.450012,1.149994l-0.630005,0.850006l-1.439972,0.070007l-2.090027,-0.240021l-1.579987,0.490021l-1.279999,-0.330017l0.190002,-4.299988l-2.300018,1.660004l-2.470001,-0.070007l-1.059998,-1.51001l-1.859985,-0.160004l0.589996,-1.209991l-1.559998,-1.720001l-1.170013,-2.529999l0.740021,-0.509979l0,-1.190002l1.699982,-0.809998l-0.279999,-1.51001l0.710022,-0.980011l0.209991,-1.299988l3.199982,-1.910004l2.300018,-0.529999l0.369995,-0.420013l2.529999,0.130005l1.26001,-7.649994l0.069977,-1.209991l-0.439972,-1.589996l-1.240021,-1.02002l0.01001,-2.019989l1.579987,-0.459991l0.559998,0.289978l0.090027,-1.069977l-1.640015,-0.290009l-0.029999,-1.740021l5.459991,0.060028l0.930023,-0.960022l0.779999,0.880005l0.539978,1.649994l0.529999,-0.349976l1.550018,1.47998l2.179993,-0.179993l0.540009,-0.860016l2.079987,-0.649994l1.160004,-0.449982l0.320007,-1.180023l2.009979,-0.799988l-0.159973,-0.579987l-2.370026,-0.240021l-0.389984,-1.759979l0.109985,-1.870026l-1.25,-0.720001l0.52002,-0.259979l2.079987,0.359985l2.230011,0.700012l0.809998,-0.660004l2.01001,-0.440002l3.139984,-1.040009l1.029999,-1.069977l-0.380005,-0.790009l1.460022,-0.119995l0.659973,0.639984l-0.369995,1.230011l0.960022,0.419983l0.649994,1.300018l-0.779999,0.97998l-0.450012,2.380005l0.720001,1.410004l0.200012,1.290009l1.72998,1.299988l1.380005,0.140015l0.309998,-0.540009l0.880005,-0.119995l1.269989,-0.48999l0.910004,-0.740021l1.550018,0.230011l0.679993,-0.100006l1.529999,0.230011l0.25,-0.570007l-0.470001,-0.549988l0.279999,-0.809998l1.130005,0.25l1.329987,-0.290009l1.600006,0.589996l1.230011,0.579987l0.869995,-0.759979l0.619995,0.119995l0.390015,0.790009l1.339996,-0.200012l1.070007,-1.059998l0.859985,-2.059998l1.660004,-2.550018l0.959991,-0.129974l0.690002,1.539978l1.570007,4.880005l1.5,0.459991l0.079987,1.920013l-2.109985,2.290009l0.869995,0.839996l4.959991,0.440002l0.100006,2.789978l2.130005,-1.829987l3.529999,1.01001l4.649994,1.699982l1.369995,1.630005l-0.459991,1.540009l3.26001,-0.860016l5.459991,1.480011l4.190002,-0.109985l4.139984,2.309998l3.580017,3.129974l2.160004,0.800018l2.399994,0.119995l1.019989,0.880005l0.950012,3.570007l0.470001,1.690002l-1.119995,4.659973l-1.430023,1.840027l-3.949982,3.939972l-1.790009,3.210022l-2.070007,2.47998l-0.699982,0.059998l-0.790009,2.100006l0.200012,5.399994l-0.779999,4.480011l-0.300018,1.929993l-0.880005,1.150024l-0.5,3.940002l-2.839996,3.880005l-0.47998,3.089966l-2.27002,1.309998l-0.660004,1.809998l-3.039978,-0.01001l-4.410004,1.170044l-1.980011,1.349976l-3.139984,0.890015l-3.300018,2.440002l-2.369995,3.059998l-0.410004,2.320007l0.470001,1.72998l-0.529999,3.179993l-0.630005,1.549988l-1.959991,1.75l-3.110016,5.680054l-2.469971,2.589966l-1.910004,1.539978l-1.27002,3.160034l-1.859985,1.909973l-0.779999,-1.899963l1.23999,-1.570007l-1.619995,-2.25l-2.200012,-1.820007l-2.889984,-2.080017l-1.040009,0.090027l-2.809998,-2.5l-1.820007,0.339966z" class="land" id="BR" title="Brazil" /> 
     <path d="m40.809998,212.72998l0,10.570007l3,0l1.690002,0.130005l-0.929993,1.97998l-2.400024,1.530029l-1.379974,-0.160034l-1.660004,-0.399963l-2.040009,-1.480042l-2.940002,-0.709961l-3.529999,-2.710022l-2.859985,-2.570007l-3.860016,-5.25l2.309998,0.970032l3.940002,3.130005l3.720001,1.699951l1.450012,-2.169983l0.910004,-3.200012l2.579987,-1.909973l2,0.549988zm1.160004,-112.01001l1.100006,4.150024l2.019989,-0.410034l0.339996,0.76001l-0.959991,3.159973l-3.049988,1.51001l0.089996,5.140015l-0.589996,1l0.839996,1.22998l-1.980011,1.950012l-1.839996,2.960022l-1,2.899963l0.269989,3.110046l-1.72998,3.339966l1.289978,5.690002l0.730011,0.609985l-0.01001,3.090027l-1.599976,3.309998l0.059998,2.869995l-2.120026,2.26001l0.01001,3.219971l0.850006,3.460022l-1.679993,1.299988l-0.75,3.220032l-0.660004,3.75l0.470001,4.539978l-1.130005,0.77002l0.649994,4.399963l1.27002,1.460022l-0.920013,1.630005l1.299988,0.779968l0.300018,1.480042l-1.220001,0.75l0.299988,2.329956l-1.019989,5.350037l-1.48999,3.52002l0.329987,2.109985l-0.890015,2.679993l-2.149994,1.880005l0.25,4.599976l0.990021,1.600037l1.869995,-0.280029l-0.050018,3.330017l1.160004,2.630005l6.779999,0.609985l2.600006,0.710022l-2.48999,-0.030029l-1.350006,1.130005l-2.529999,1.669983l-0.450012,4.380005l-1.190002,0.109985l-3.160004,-1.539978l-3.209991,-3.25l0,0l-3.48999,-2.630005l-0.880005,-2.869995l0.790009,-2.619995l-1.410004,-2.940002l-0.360016,-7.339966l1.190002,-4.030029l2.960022,-3.190002l-4.26001,-1.190002l2.669983,-3.570007l0.950012,-6.559998l3.119995,1.369995l1.460022,-7.969971l-1.880005,-1l-0.880005,4.75l-1.77002,-0.540039l0.880005,-5.419983l0.960022,-6.839966l1.289978,-2.480042l-0.809998,-3.5l-0.22998,-3.97998l1.179993,-0.109985l1.720001,-5.600037l1.940002,-5.429993l1.190002,-4.969971l-0.650024,-4.910034l0.840027,-2.669983l-0.340027,-3.960022l1.640015,-3.869995l0.51001,-6.039978l0.899994,-6.369995l0.880005,-6.75l-0.210022,-4.869995l-0.579987,-4.150024l1.440002,-0.75l0.75,-1.5l1.369995,1.98999l0.369995,2.119995l1.470001,1.25l-0.880005,2.869995l1.51001,3.340027z" class="land" id="CL" title="Chile" /> 
     <path d="m21.920013,39.809998l-1.200012,-0.660004l-1.380005,-0.919983l-0.799988,0.440002l-2.380005,-0.390015l-0.679993,-1.200012l-0.52002,0.050018l-2.809998,-1.589996l-0.37999,-0.869995l1.050003,-0.210022l-0.12001,-1.389984l0.650009,-1.01001l1.389984,-0.190002l1.190002,-1.75l1.070007,-1.459991l-1.040009,-0.670013l0.529999,-1.619995l-0.630005,-2.559998l0.600006,-0.730011l-0.440002,-2.369995l-1.139984,-1.5l0.359985,-1.359985l0.910004,0.199982l0.529999,-0.839996l-0.649994,-1.649994l0.339996,-0.419983l1.440002,0.089996l2.110016,-1.970001l1.149994,-0.300018l0.029999,-0.929993l0.519989,-2.389984l1.610016,-1.320007l1.759979,-0.050018l0.220001,-0.589996l2.200012,0.230011l2.209991,-1.429993l1.089996,-0.640015l1.350006,-1.369995l1,0.170013l0.730011,0.75l-0.540009,0.959991l-1.799988,0.47998l-0.710022,1.420013l-1.089996,0.809998l-0.809998,1.059998l-0.350006,2.01001l-0.769989,1.660004l1.440002,0.179993l0.359985,1.299988l0.620026,0.620026l0.219971,1.129974l-0.329987,1.040009l0.100006,0.589996l0.690002,0.230011l0.669983,0.97998l3.600006,-0.269989l1.630005,0.360016l1.980011,2.409973l1.129974,-0.299988l2.02002,0.149994l1.600006,-0.319977l0.98999,0.48999l-0.51001,1.5l-0.619995,0.940002l-0.220001,2.009979l0.559998,1.850006l0.800018,0.830017l0.089996,0.630005l-1.420013,1.389984l1.02002,0.610016l0.75,0.97998l0.849976,2.77002l-0.529999,0.349976l-0.539978,-1.649994l-0.779999,-0.880005l-0.930023,0.960022l-5.459991,-0.060028l0.029999,1.740021l1.640015,0.290009l-0.090027,1.069977l-0.559998,-0.289978l-1.579987,0.459991l-0.01001,2.019989l1.240021,1.02002l0.439972,1.589996l-0.069977,1.209991l-1.26001,7.649994l-1.399994,-1.48999l-0.839996,-0.059998l1.809998,-2.839996l-2.149994,-1.309998l-1.680023,0.23999l-1.009979,-0.480011l-1.550018,0.740021l-2.089996,-0.350006l-1.649994,-2.920013l-1.299988,-0.720001l-0.890015,-1.320007l-1.859985,-1.319977l-0.75,0.269989z" class="land" id="CO" title="Colombia" /> 
     <path d="m8.100006,48.869995l1.48999,-2.079987l-0.610001,-1.220001l-1.069992,1.299988l-1.680008,-1.22998l0.570007,-0.780029l-0.470001,-2.529999l0.979996,-0.419983l0.520004,-1.730011l1.059998,-1.799988l-0.199997,-1.130005l1.539993,-0.600006l1.919998,-1.109985l2.809998,1.589996l0.52002,-0.050018l0.679993,1.200012l2.380005,0.390015l0.799988,-0.440002l1.380005,0.919983l1.200012,0.660004l0.389984,2.110016l-0.869995,1.809998l-3.059998,2.919983l-3.369995,1.100006l-1.720016,2.429993l-0.529999,1.880005l-1.589996,1.149994l-1.169998,-1.410004l-1.139999,-0.299988l-1.160004,0.220001l-0.069992,-1.019989l0.799988,-0.660004l-0.329987,-1.170013z" class="land" id="EC" title="Ecuador" /> 
     <path d="m61.660004,209.130005l3.359985,-2.690002l2.390015,1.119995l1.679993,-1.789978l2.23999,2.01001l-0.839996,1.579956l-3.789978,1.359985l-1.26001,-1.589966l-2.380005,2.049988l-1.399994,-2.049988z" class="land" id="FK" title="Falkland Islands" /> 
     <path d="m85.890015,32.410004l-1.070007,1.059998l-1.339996,0.200012l-0.380005,-0.779999l-0.630005,-0.120026l-0.869995,0.76001l-1.220001,-0.570007l0.710022,-1.190002l0.23999,-1.269989l0.480011,-1.199982l-1.090027,-1.650024l-0.220001,-1.910004l1.460022,-2.409973l0.949982,0.309998l2.059998,0.660004l2.970001,2.359985l0.460022,1.139984l-1.660004,2.550018l-0.850006,2.059998z" class="land" id="GF" title="French Guiana" /> 
     <path d="m65.700012,16l1.839996,1.029999l1.73999,1.829987l0.070007,1.450012l1.059998,0.070007l1.5,1.359985l1.109985,0.980011l-0.449982,2.519989l-1.700012,0.730011l0.149994,0.649994l-0.519989,1.450012l1.25,2.019989l0.890015,0.01001l0.369995,1.570007l1.709991,2.419983l-0.679993,0.100006l-1.550018,-0.230011l-0.910004,0.740021l-1.269989,0.48999l-0.880005,0.119995l-0.309998,0.540009l-1.380005,-0.140015l-1.72998,-1.299988l-0.200012,-1.290009l-0.720001,-1.410004l0.450012,-2.380005l0.779999,-0.97998l-0.649994,-1.300018l-0.960022,-0.419983l0.369995,-1.230011l-0.659973,-0.639984l-1.460022,0.119995l-1.889984,-2.119995l0.759979,-0.77002l-0.059998,-1.299988l1.730011,-0.450012l0.690002,-0.519989l-0.959991,-1.040009l0.25,-1.029999l2.220001,-1.649994z" class="land" id="GY" title="Guyana" /> 
     <path d="m38.130005,89.140015l-0.75,1.51001l-1.440002,0.73999l-2.809998,-1.679993l-0.25,-1.200012l-5.550018,-2.920013l-5.029999,-3.169983l-2.169983,-1.779999l-1.160004,-2.370026l0.459991,-0.829987l-2.369995,-3.75l-2.769989,-5.23999l-2.640015,-5.620026l-1.149994,-1.289978l-0.880005,-2.059998l-2.179993,-1.839996l-2,-1.130005l0.910004,-1.25l-1.360001,-2.670013l0.869995,-1.949982l2.240005,-1.77002l0.329987,1.170013l-0.799988,0.660004l0.069992,1.019989l1.160004,-0.220001l1.139999,0.299988l1.169998,1.410004l1.589996,-1.149994l0.529999,-1.880005l1.720016,-2.429993l3.369995,-1.100006l3.059998,-2.919983l0.869995,-1.809998l-0.389984,-2.110016l0.75,-0.269989l1.859985,1.319977l0.890015,1.320007l1.299988,0.720001l1.649994,2.920013l2.089996,0.350006l1.550018,-0.740021l1.009979,0.480011l1.680023,-0.23999l2.149994,1.309998l-1.809998,2.839996l0.839996,0.059998l1.399994,1.48999l-2.529999,-0.130005l-0.369995,0.420013l-2.300018,0.529999l-3.199982,1.910004l-0.209991,1.299988l-0.710022,0.980011l0.279999,1.51001l-1.699982,0.809998l0,1.190002l-0.740021,0.509979l1.170013,2.529999l1.559998,1.720001l-0.589996,1.209991l1.859985,0.160004l1.059998,1.51001l2.470001,0.070007l2.300018,-1.660004l-0.190002,4.299988l1.279999,0.330017l1.579987,-0.490021l2.430023,4.580017l-0.610016,0.959991l-0.130005,2.02002l-0.059998,2.439972l-1.100006,1.440002l0.51001,1.070007l-0.649994,0.970001l1.209991,2.440002l-1.769989,3.140015z" class="land" id="PE" title="Peru" /> 
     <path d="m57.48999,102.98999l1.110016,-3.589966l0.070007,-1.600037l1.339996,-2.619995l4.889984,-0.859985l2.600006,0.049988l2.619995,1.51001l0.040009,0.909973l0.829987,1.660034l-0.179993,4.059998l2.959991,0.580017l1.140015,-0.590027l1.889984,0.820007l0.529999,0.899963l0.26001,2.77002l0.330017,1.179993l1.039978,0.130005l1.050018,-0.48999l1.009979,0.549988l0,1.679993l-0.379974,1.820007l-0.550018,1.780029l-0.459991,2.75l-2.540009,2.399963l-2.220001,0.5l-3.149994,-0.47998l-2.820007,-0.849976l2.76001,-4.730042l-0.410004,-1.369995l-2.880005,-1.200012l-3.429993,-2.259949l-2.290009,-0.460022l-5.160004,-4.950012z" class="land" id="PY" title="Paraguay" /> 
     <path d="m73.019989,22.720001l3.360016,0.559998l0.299988,-0.51001l2.27002,-0.199982l3.009979,0.759979l-1.459991,2.400024l0.220001,1.910004l1.109985,1.659973l-0.48999,1.200012l-0.25,1.269989l-0.720001,1.170013l-1.600006,-0.589996l-1.329987,0.290009l-1.130005,-0.25l-0.279999,0.809998l0.470001,0.549988l-0.25,0.570007l-1.529999,-0.230011l-1.709991,-2.419983l-0.369995,-1.570007l-0.890015,-0.01001l-1.25,-2.019989l0.519989,-1.450012l-0.149994,-0.649994l1.700012,-0.730011l0.449982,-2.519989z" class="land" id="SR" title="Suriname" /> 
     <path d="m71.679993,127.789978l1.820007,-0.339966l2.809998,2.5l1.040009,-0.090027l2.889984,2.080017l2.200012,1.820007l1.619995,2.25l-1.23999,1.570007l0.779999,1.899963l-1.209991,2.119995l-3.170013,1.880005l-2.070007,-0.679993l-1.519989,0.369995l-2.589996,-1.459961l-1.899994,0.109985l-1.710022,-1.869995l0.220001,-2.160034l0.610016,-0.73999l-0.029999,-3.299988l0.75,-3.369995l0.699982,-2.590027z" class="land" id="UY" title="Uruguay" /> 
     <path d="m33.25,6.350006l-0.079987,0.669983l-1.650024,0.330017l0.920013,1.290009l-0.040009,1.48999l-1.22998,1.639984l1.059998,2.240021l1.209991,-0.180023l0.630005,-2.039978l-0.869995,-1l-0.140015,-2.140015l3.48999,-1.160004l-0.389984,-1.339996l0.980011,-0.899994l1.009979,2l1.970001,0.049988l1.820007,1.580017l0.109985,0.940002l2.51001,0.019989l3,-0.290009l1.610016,1.27002l2.139984,0.350006l1.570007,-0.880005l0.029999,-0.720001l3.480011,-0.170013l3.359985,-0.040009l-2.380005,0.840027l0.950012,1.339996l2.25,0.209991l2.119995,1.390015l0.450012,2.259979l1.459991,-0.070007l1.100006,0.670013l-2.220001,1.649994l-0.25,1.029999l0.959991,1.040009l-0.690002,0.519989l-1.730011,0.450012l0.059998,1.299988l-0.759979,0.77002l1.889984,2.119995l0.380005,0.790009l-1.029999,1.069977l-3.139984,1.040009l-2.01001,0.440002l-0.809998,0.660004l-2.230011,-0.700012l-2.079987,-0.359985l-0.52002,0.259979l1.25,0.720001l-0.109985,1.870026l0.389984,1.759979l2.370026,0.240021l0.159973,0.579987l-2.009979,0.799988l-0.320007,1.180023l-1.160004,0.449982l-2.079987,0.649994l-0.540009,0.860016l-2.179993,0.179993l-1.550018,-1.47998l-0.849976,-2.77002l-0.75,-0.97998l-1.02002,-0.610016l1.420013,-1.389984l-0.089996,-0.630005l-0.800018,-0.830017l-0.559998,-1.850006l0.220001,-2.009979l0.619995,-0.940002l0.51001,-1.5l-0.98999,-0.48999l-1.600006,0.319977l-2.02002,-0.149994l-1.129974,0.299988l-1.980011,-2.409973l-1.630005,-0.360016l-3.600006,0.269989l-0.669983,-0.97998l-0.690002,-0.230011l-0.100006,-0.589996l0.329987,-1.040009l-0.219971,-1.129974l-0.620026,-0.620026l-0.359985,-1.299988l-1.440002,-0.179993l0.769989,-1.660004l0.350006,-2.01001l0.809998,-1.059998l1.089996,-0.809998l0.710022,-1.420013l1.799988,-0.47998z" class="land" id="VE" title="Venezuela" /> 
    </g> 
   </g> 
  </svg>